<svg width="70" height="70" viewBox="0 0 70 70" fill="none" xmlns="http://www.w3.org/2000/svg">
<rect width="70" height="70" rx="15" fill="#FFE8B5"/>
<path d="M40.7831 43.8198C39.9177 45.8144 38.9285 46.1486 36.8769 45.0952C36.7598 45.4956 36.5363 45.8561 36.2302 46.1385C35.924 46.4209 35.5466 46.6147 35.1379 46.6993C34.7292 46.7838 34.3045 46.7561 33.9088 46.6189C33.5131 46.4818 33.1612 46.2404 32.8904 45.9202C32.7133 46.3923 32.3838 46.791 31.9538 47.0534C31.5237 47.3158 31.0176 47.427 30.5152 47.3696C30.0105 47.3117 29.5394 47.084 29.1793 46.7239C28.8191 46.3638 28.5914 45.8927 28.5336 45.388C28.1294 45.7342 27.6199 45.9342 27.0865 45.9558C26.5531 45.9775 26.0266 45.8197 25.5913 45.5076L24.7053 46.3936C25.012 47.1325 25.0717 47.9492 24.8755 48.7215C24.6793 49.4938 24.2376 50.1801 23.6168 50.6774C23.4093 50.8849 22.9137 50.7482 22.3793 50.7858C21.2709 52.4701 20.0449 54.3284 18.8132 56.1923C18.3654 56.866 17.9288 57.551 17.464 58.2078C17.0888 58.7523 16.7625 58.7624 16.2713 58.2713L12.5114 54.5114C11.9469 53.9468 11.9965 53.6375 12.6815 53.2122C15.073 51.5885 17.5041 50.0155 19.8957 48.4256C19.9518 48.3695 20.0134 48.3078 20.0639 48.2573C19.74 47.3166 19.7512 47.2829 20.5989 46.7287C21.0088 46.4656 21.413 46.1856 21.8341 45.9339C22.087 45.7501 22.3858 45.6394 22.6981 45.6137C23.0104 45.5879 23.3244 45.6482 23.606 45.7879C24.2769 46.1896 24.6304 45.8926 24.9777 45.4324C25.0506 45.3595 25.1235 45.2866 25.1794 45.163C24.8753 44.7261 24.7247 44.2013 24.7515 43.6716C24.7782 43.1418 24.9808 42.6373 25.3271 42.2376C24.8222 42.1766 24.3514 41.9473 23.9908 41.5867C23.6303 41.2261 23.4009 40.7553 23.3399 40.2504C23.2668 39.7474 23.3694 39.2358 23.6304 38.802C23.8914 38.3682 24.2948 38.0388 24.7724 37.8695C23.579 36.0369 23.8448 34.7549 25.7268 33.889C25.436 33.5914 25.2293 33.2221 25.128 32.8192C25.0268 32.4163 25.0346 31.9945 25.1508 31.5971C25.2735 31.1922 25.509 30.8312 25.8299 30.5563C26.1507 30.2815 26.5437 30.104 26.963 30.0446C26.6832 29.7086 26.5034 29.301 26.4442 28.8689C26.385 28.4367 26.4489 27.9974 26.6285 27.6015C26.8085 27.2093 27.0968 26.8773 27.4598 26.6443C27.8227 26.4113 28.2452 26.2871 28.6778 26.2861C28.4498 25.9028 28.3353 25.4632 28.3478 25.0188C28.3603 24.5744 28.4992 24.1436 28.7482 23.7769C28.9973 23.4248 29.3421 23.1517 29.7422 22.9896C30.1423 22.8275 30.581 22.7831 31.007 22.8617C30.5339 21.0202 31.7775 19.3926 34.03 19.9403C33.9485 19.5084 33.9931 19.063 34.1584 18.6574C34.3236 18.2518 34.6027 17.9032 34.962 17.6534C35.326 17.4037 35.7577 17.2703 36.2005 17.2707C36.6433 17.2712 37.0765 17.4055 37.4433 17.6561C38.229 15.3574 39.6678 14.8671 41.473 16.2798C41.6241 15.8353 41.9077 15.4484 42.2859 15.1711C42.6641 14.8938 43.1188 14.7393 43.5891 14.7283C44.0641 14.7196 44.5305 14.8631 44.9201 15.1377C45.3098 15.4123 45.6022 15.8037 45.7548 16.2548C46.0806 15.8981 46.5079 15.6497 46.9799 15.5428C47.452 15.4358 47.9463 15.4753 48.3973 15.6559C48.8333 15.8441 49.201 16.1627 49.4493 16.5678C49.6977 16.9729 49.8144 17.4444 49.7834 17.9169C52.0034 17.1647 53.585 19.0043 52.8433 20.9767C53.3175 20.9482 53.7897 21.069 54.1938 21.3221C54.5978 21.5751 54.9132 21.9478 55.0959 22.3878C55.2786 22.8278 55.3193 23.313 55.2124 23.7754C55.1054 24.2378 54.8562 24.6541 54.4996 24.9659C54.9511 25.1231 55.3427 25.4179 55.6191 25.8085C55.8955 26.1992 56.0427 26.666 56.04 27.1431C56.0372 27.6201 55.8846 28.0832 55.6037 28.4669C55.3228 28.8506 54.9279 29.1356 54.4747 29.2815C54.8178 29.5795 55.0645 29.9729 55.1829 30.4109C55.3014 30.8489 55.2862 31.3115 55.1393 31.739C54.9924 32.1665 54.7205 32.5394 54.3588 32.8096C53.997 33.0798 53.5618 33.2349 53.1094 33.2549C53.3426 33.6281 53.4689 34.0577 53.4743 34.4965C53.4798 34.9352 53.3642 35.3662 53.1403 35.742C52.899 36.1263 52.5487 36.4295 52.1336 36.6135C51.7186 36.7974 51.2575 36.8536 50.8087 36.7751C50.9584 37.1933 50.9889 37.6441 50.897 38.0771C50.805 38.5101 50.5941 38.9081 50.288 39.2266C49.9841 39.5278 49.5997 39.7354 49.1803 39.8247C48.7609 39.914 48.324 39.8814 47.9209 39.7307C48.0177 41.7566 46.4914 42.9893 44.4855 42.1386C44.1497 44.3712 42.1987 44.798 40.7831 43.8198ZM29.214 43.5785C29.6786 43.172 30.2867 42.9673 30.9049 43.0095C31.5231 43.0516 32.1011 43.3371 32.512 43.8034C33.5754 42.1414 34.6156 41.9142 36.3183 42.9552C37.1792 41.2589 37.9997 40.9916 40.0504 41.7636C40.0867 41.3983 40.226 41.0514 40.4522 40.7633C40.6783 40.4752 40.9819 40.2578 41.3278 40.1362C42.0484 40.0171 42.7796 39.9705 43.5105 39.9972C43.5414 39.6755 43.6432 39.3652 43.8086 39.0885C43.974 38.8117 44.199 38.5755 44.4673 38.3968C44.7791 38.1938 45.1331 38.0637 45.503 38.0162C45.873 37.9688 46.2494 38.0051 46.6045 38.1227C46.5089 37.7609 46.5161 37.3803 46.6252 37.0237C46.7344 36.6672 46.9412 36.3489 47.2223 36.1048C47.8377 35.7488 48.4846 35.4497 49.1549 35.211C48.874 33.6627 49.4056 32.7924 51.182 32.3144C50.4618 30.6409 51.004 29.5681 52.397 28.8413C51.3183 27.6617 51.3538 26.4971 52.2845 25.4987C51.8124 25.0581 51.4052 24.5527 51.0754 23.9979C50.9456 23.4369 50.9057 22.8594 50.9571 22.287C50.3782 22.0853 49.8328 21.797 49.3394 21.432C48.9498 20.9158 48.6371 20.3461 48.411 19.7409C48.1233 19.856 47.8147 19.9111 47.5041 19.9027C47.1936 19.8943 46.8876 19.8226 46.6049 19.6921C46.3221 19.5616 46.0686 19.375 45.8598 19.1437C45.651 18.9123 45.4913 18.6411 45.3904 18.3467C44.1111 19.4002 43.374 19.4033 41.9359 18.4139C40.9058 19.9746 40.2314 20.2087 38.6822 19.6464C38.3529 20.2619 37.9232 20.8176 37.4105 21.2908C36.761 21.5663 36.0693 21.7313 35.364 21.7791C35.4304 22.1166 35.4013 22.4653 35.2801 22.786C35.1589 23.1067 34.9504 23.3866 34.678 23.5942C34.0539 23.9301 33.3993 24.2067 32.7227 24.4204C32.8381 24.7388 32.8656 25.0818 32.8023 25.4134C32.7391 25.7449 32.5874 26.0526 32.3633 26.3041C31.8288 26.7627 31.2518 27.1696 30.64 27.5193C31.2192 29.0854 30.7277 30.1641 29.0192 30.766C29.7911 32.7717 29.5739 33.4293 27.8275 34.4644C28.8516 36.1614 28.6521 37.0835 26.9625 38.2763C27.196 38.4778 27.3875 38.7234 27.5259 38.9987C27.6643 39.2741 27.7469 39.5739 27.7688 39.8806C27.7908 40.1874 27.7517 40.495 27.6538 40.7857C27.5559 41.0765 27.4012 41.3445 27.1986 41.5743C27.7031 41.6509 28.1708 41.8867 28.5335 42.2473C28.8962 42.608 29.1346 43.0745 29.214 43.5785ZM15.9983 57.3814L16.2919 57.6749C16.9129 58.2959 16.9185 58.3016 17.3607 57.6222C18.6987 55.5955 20.0367 53.5688 21.3803 51.5477C22.2817 50.206 22.2873 50.2116 21.1244 49.0486L20.9268 48.851C20.695 48.5408 20.4812 48.5288 20.1275 48.7583C17.8875 50.2644 15.6249 51.7366 13.3905 53.2371C12.4136 53.8752 12.4137 53.8865 13.3052 54.6434C13.3447 54.683 13.4179 54.6888 13.463 54.7115L14.6413 53.7251L14.8558 53.9397L13.8413 55.101L14.7671 56.0268C15.6027 55.1913 16.399 54.395 17.1953 53.5987C17.2963 53.4977 17.5101 53.5097 17.6732 53.4708C17.6174 53.6169 17.6067 53.797 17.5058 53.8979C17.0684 54.3353 16.631 54.7727 16.1992 55.2045L15.0776 56.3261L15.6422 56.8907L16.6019 56.1568L16.7994 56.3544L15.9983 57.3814ZM20.2302 47.5039L23.1828 50.4565C23.2725 50.3783 23.3569 50.2939 23.4351 50.2042C23.771 49.6877 24.1294 49.1825 24.4371 48.649C24.6181 48.3465 24.6976 47.9935 24.6641 47.6412C24.6305 47.289 24.4857 46.9559 24.2505 46.6903C24.0256 46.3963 23.7061 46.1888 23.3466 46.1035C22.9871 46.0181 22.6099 46.0601 22.2796 46.2223C21.6169 46.6027 20.9827 47.0676 20.2528 47.5265L20.2302 47.5039ZM52.1013 21.1881C52.4329 20.8564 52.6184 20.4057 52.6168 19.9351C52.6152 19.4644 52.4267 19.0125 52.0928 18.6786C51.759 18.3447 51.307 18.1562 50.8364 18.1546C50.3657 18.1531 49.915 18.3385 49.5833 18.6702C49.2517 19.0018 49.0662 19.4525 49.0678 19.9232C49.0694 20.3938 49.2579 20.8458 49.5918 21.1797C49.9256 21.5136 50.3776 21.702 50.8482 21.7036C51.3189 21.7052 51.7696 21.5197 52.1013 21.1881ZM25.7642 45.0636C26.0171 45.3074 26.3361 45.471 26.6809 45.5338C27.0256 45.5965 27.3806 45.5556 27.7007 45.4161C28.0208 45.2766 28.2916 45.0449 28.4787 44.7504C28.6659 44.4559 28.761 44.1118 28.7519 43.7618C28.7428 43.4119 28.6299 43.0718 28.4277 42.7848C28.2254 42.4978 27.9429 42.2767 27.6158 42.1497C27.2888 42.0227 26.9321 41.9955 26.5909 42.0715C26.2498 42.1474 25.9396 42.3232 25.6996 42.5765C25.386 42.9164 25.2175 43.3657 25.2295 43.8297C25.2416 44.2937 25.4333 44.7361 25.7642 45.0636ZM38.5083 16.4331C38.1806 16.7569 37.9911 17.1953 37.979 17.6573C37.9669 18.1193 38.1333 18.5694 38.4435 18.9142C38.7699 19.2555 39.2177 19.4541 39.6884 19.4662C40.1591 19.4783 40.614 19.303 40.9532 18.9789C41.2923 18.6547 41.4879 18.2082 41.4969 17.7376C41.5058 17.267 41.3275 16.8109 41.001 16.4695C40.6676 16.1444 40.2227 15.9592 39.7586 15.9524C39.2945 15.9456 38.8468 16.1178 38.5083 16.4331ZM42.3684 18.1846C42.6998 18.5107 43.1435 18.6971 43.6068 18.7049C44.0702 18.7127 44.5175 18.5414 44.8555 18.2267C45.1872 17.895 45.3726 17.4443 45.371 16.9737C45.3695 16.5031 45.181 16.0511 44.8471 15.7172C44.5132 15.3833 44.0612 15.1948 43.5906 15.1933C43.12 15.1917 42.6693 15.3771 42.3376 15.7088C42.0247 16.0448 41.8534 16.4889 41.8591 16.9495C41.8649 17.4102 42.0472 17.8523 42.3684 18.1846ZM52.5868 28.403C52.8371 28.6489 53.1543 28.8154 53.4982 28.8815C53.842 28.9475 54.1971 28.9102 54.5183 28.7741C54.8396 28.6381 55.1126 28.4095 55.3028 28.1173C55.493 27.8251 55.5917 27.4824 55.5866 27.1327C55.5815 26.783 55.4727 26.442 55.274 26.1529C55.0754 25.8637 54.7957 25.6395 54.4706 25.5086C54.1454 25.3777 53.7893 25.346 53.4475 25.4175C53.1057 25.489 52.7934 25.6605 52.5503 25.9103C52.235 26.2488 52.0629 26.6965 52.0697 27.1606C52.0765 27.6247 52.2617 28.0696 52.5868 28.403ZM54.3272 32.3081C54.5705 32.058 54.7335 31.7408 54.7955 31.3967C54.8575 31.0526 54.8158 30.6972 54.6757 30.3755C54.5355 30.0538 54.3032 29.7804 54.0082 29.5899C53.7133 29.3995 53.369 29.3005 53.019 29.3057C52.6691 29.3109 52.3292 29.4199 52.0426 29.6189C51.7561 29.818 51.5356 30.0981 51.4093 30.4237C51.2831 30.7493 51.2566 31.1058 51.3334 31.4478C51.4101 31.7898 51.5866 32.102 51.8404 32.3448C52.1853 32.6578 52.6374 32.8254 53.1014 32.8122C53.5653 32.7991 54.0048 32.6062 54.3271 32.2743L54.3272 32.3081ZM40.9899 43.3873C41.3297 43.6846 41.769 43.8425 42.2187 43.8289C42.6685 43.8154 43.0951 43.6314 43.4123 43.3142C43.7295 42.997 43.9135 42.5704 43.927 42.1206C43.9406 41.6708 43.7827 41.2316 43.4854 40.8918C43.3248 40.7083 43.1284 40.5594 42.9085 40.4545C42.6886 40.3497 42.4498 40.2909 42.2068 40.282C41.9639 40.273 41.7221 40.314 41.4963 40.4025C41.2706 40.491 41.0657 40.625 40.8944 40.7963C40.7231 40.9676 40.5891 41.1724 40.5006 41.3982C40.4122 41.624 40.3711 41.8658 40.3801 42.1087C40.389 42.3516 40.4478 42.5905 40.5527 42.8104C40.6576 43.0303 40.8064 43.2267 40.9899 43.3873ZM46.3264 18.935C46.5733 19.1772 46.8855 19.342 47.2241 19.4089C47.5627 19.4758 47.9128 19.4418 48.231 19.3112C48.5491 19.1806 48.8212 18.9591 49.0135 18.6743C49.2057 18.3895 49.3096 18.0538 49.3123 17.7091C49.315 17.3645 49.2163 17.0259 49.0285 16.7356C48.8407 16.4453 48.572 16.216 48.256 16.0762C47.9399 15.9364 47.5904 15.8924 47.2508 15.9495C46.9113 16.0066 46.5966 16.1624 46.3461 16.3974C46.1727 16.5585 46.0342 16.7533 45.9389 16.97C45.8436 17.1868 45.7935 17.421 45.7917 17.6583C45.7899 17.8957 45.8363 18.1312 45.9282 18.3507C46.0202 18.5702 46.1556 18.769 46.3264 18.935ZM29.55 46.4717C29.7975 46.7214 30.1132 46.8924 30.4569 46.9628C30.8006 47.0333 31.1568 47.0001 31.4803 46.8674C31.8037 46.7348 32.0797 46.5087 32.2732 46.2179C32.4668 45.9271 32.569 45.5847 32.5671 45.2343C32.5651 44.8839 32.459 44.5413 32.2622 44.2501C32.0654 43.9588 31.7868 43.7321 31.4619 43.5988C31.137 43.4654 30.7804 43.4314 30.4375 43.5012C30.0945 43.5709 29.7808 43.7412 29.5361 43.9903C29.2118 44.3146 29.029 44.7544 29.0274 45.2146C29.0258 45.6747 29.2054 46.1183 29.5275 46.4491L29.55 46.4717ZM39.7735 44.7504C40.0672 44.4141 40.2213 43.9779 40.2048 43.5301C40.1883 43.0823 40.0023 42.6564 39.6844 42.3385C39.3666 42.0207 38.9406 41.8347 38.4928 41.8181C38.045 41.8016 37.6088 41.9558 37.2725 42.2495C37.0888 42.4054 36.9394 42.5975 36.8334 42.814C36.7274 43.0305 36.6671 43.2667 36.6562 43.508C36.6453 43.7494 36.684 43.9908 36.7701 44.2172C36.8561 44.4436 36.9876 44.6503 37.1563 44.8244C37.3251 44.9986 37.5275 45.1365 37.7512 45.2296C37.9748 45.3227 38.2149 45.3691 38.4565 45.3658C38.6982 45.3626 38.9362 45.3098 39.156 45.2107C39.3758 45.1116 39.5726 44.9683 39.7342 44.7897L39.7735 44.7504ZM27.4152 27.2891C27.2507 27.449 27.1198 27.6402 27.03 27.8516C26.9402 28.0629 26.8933 28.2903 26.892 28.5205C26.8907 28.7507 26.935 28.9791 27.0223 29.1927C27.1097 29.4062 27.2384 29.6007 27.401 29.7647C27.7334 30.0971 28.1833 30.2847 28.6518 30.2863C29.1204 30.2879 29.5691 30.1033 29.8992 29.7731C30.2294 29.4429 30.414 28.9942 30.4125 28.5257C30.4109 28.0572 30.2233 27.6072 29.8909 27.2748C29.7268 27.1122 29.5324 26.9835 29.3188 26.8962C29.1053 26.8088 28.8768 26.7645 28.6466 26.7658C28.4164 26.7672 28.1891 26.8141 27.9777 26.9039C27.7664 26.9937 27.5752 27.1246 27.4152 27.2891ZM28.508 31.0175C28.2619 30.7692 27.948 30.5991 27.6062 30.5288C27.2644 30.4585 26.9101 30.4912 26.5883 30.6228C26.2665 30.7543 25.9916 30.9788 25.7987 31.2677C25.6057 31.5566 25.5033 31.8968 25.5045 32.2453C25.5056 32.5938 25.6103 32.9348 25.8052 33.225C26.0001 33.5152 26.2765 33.7415 26.5992 33.8752C26.9219 34.0089 27.2764 34.044 27.6177 33.976C27.9591 33.908 28.2718 33.74 28.5163 33.4933C28.8416 33.165 29.0232 32.7208 29.0216 32.2571C29.0201 31.7935 28.8355 31.348 28.508 31.0175ZM34.3366 20.7628C34.0876 20.5206 33.7729 20.3571 33.4322 20.2931C33.0916 20.229 32.7402 20.2674 32.4227 20.4031C32.1051 20.5389 31.8355 20.7661 31.6481 21.056C31.4607 21.3458 31.3638 21.6853 31.3697 22.0315C31.3755 22.3777 31.4839 22.7151 31.6812 23.001C31.8784 23.2869 32.1555 23.5084 32.4776 23.6376C32.7997 23.7669 33.1522 23.7979 33.4906 23.7269C33.8289 23.6559 34.138 23.486 34.3786 23.2387C34.5385 23.0745 34.6641 22.8802 34.7485 22.6668C34.8329 22.4535 34.8743 22.2254 34.8704 21.9955C34.8665 21.7656 34.8173 21.5384 34.7258 21.3269C34.6342 21.1154 34.5019 20.9237 34.3366 20.7628ZM37.3975 20.7843C37.5659 20.6257 37.701 20.4352 37.7954 20.2238C37.8897 20.0124 37.9414 19.7842 37.9474 19.5522C37.9595 19.0838 37.7851 18.6284 37.4623 18.2863C37.1396 17.9443 36.6951 17.7435 36.2265 17.7282C35.7579 17.7129 35.3037 17.8844 34.9638 18.2048C34.6239 18.5253 34.4261 18.9685 34.414 19.437C34.4018 19.9054 34.5763 20.3608 34.8991 20.7028C35.2218 21.0449 35.6663 21.2457 36.1349 21.2609C36.6034 21.2762 37.0576 21.1048 37.3975 20.7843ZM50.0063 35.7596C50.2473 36.0093 50.5564 36.1826 50.8945 36.2574C51.2327 36.3323 51.5848 36.3055 51.9064 36.1804C52.228 36.0553 52.5046 35.8374 52.7015 35.5543C52.8984 35.2713 53.0066 34.9357 53.0125 34.5899C53.0184 34.2442 52.9217 33.9037 52.7346 33.6115C52.5476 33.3193 52.2786 33.0885 51.9615 32.9482C51.6444 32.8079 51.2935 32.7644 50.9531 32.8232C50.6127 32.8819 50.2979 33.0404 50.0486 33.2784C49.8819 33.4376 49.7487 33.6285 49.6565 33.84C49.5644 34.0515 49.5152 34.2795 49.5117 34.5107C49.5083 34.742 49.5508 34.9719 49.6366 35.1872C49.7225 35.4025 49.8501 35.599 50.012 35.7653L50.0063 35.7596ZM51.8843 21.9357C51.6346 22.1743 51.4618 22.4821 51.3879 22.8202C51.3139 23.1583 51.3421 23.5113 51.4689 23.8347C51.5957 24.1581 51.8153 24.4372 52.1 24.6367C52.3847 24.8362 52.7217 24.9471 53.0682 24.9553C53.4147 24.9636 53.7551 24.8688 54.0464 24.6831C54.3377 24.4973 54.5668 24.2289 54.7045 23.9119C54.8423 23.5948 54.8826 23.2434 54.8203 22.902C54.758 22.5607 54.5959 22.2449 54.3546 21.9946C54.1947 21.8288 54.0039 21.696 53.793 21.6038C53.5822 21.5116 53.3555 21.4619 53.1259 21.4575C52.8964 21.453 52.6686 21.494 52.4555 21.578C52.2424 21.662 52.0483 21.7874 51.8844 21.9469L51.8843 21.9357ZM29.2967 26.2544C29.5392 26.5036 29.8498 26.6757 30.189 26.7489C30.5282 26.822 30.8809 26.793 31.2023 26.6655C31.5237 26.5379 31.7993 26.3176 31.9943 26.0324C32.1893 25.7472 32.2949 25.41 32.2977 25.0635C32.3005 24.717 32.2004 24.3767 32.01 24.0859C31.8196 23.795 31.5475 23.5666 31.2283 23.4296C30.909 23.2926 30.5569 23.2532 30.2166 23.3164C29.8763 23.3796 29.563 23.5424 29.3165 23.7844C28.9892 24.1087 28.8035 24.5497 28.7998 25.0119C28.7961 25.4742 28.9746 25.9206 29.2967 26.2544ZM24.3166 41.2271C24.4756 41.3936 24.6661 41.5269 24.8767 41.6193C25.0874 41.7117 25.3141 41.7613 25.5435 41.7652C25.773 41.7691 26.0006 41.7273 26.2132 41.6421C26.4257 41.5569 26.6188 41.4301 26.7812 41.2691C27.1084 40.9419 27.2913 40.4972 27.2898 40.0329C27.2882 39.5686 27.1023 39.1227 26.7729 38.7933C26.4435 38.4639 25.9976 38.278 25.5333 38.2764C25.069 38.2749 24.6244 38.4578 24.2972 38.785C24.1371 38.9451 24.0106 39.1354 23.9249 39.3451C23.8392 39.5548 23.796 39.7796 23.7978 40.0067C23.7996 40.2338 23.8464 40.4585 23.9354 40.668C24.0245 40.8774 24.154 41.0675 24.3166 41.2271ZM27.4714 37.3496C27.8001 37.0209 27.9839 36.5743 27.9823 36.1079C27.9807 35.6415 27.794 35.1935 27.4631 34.8626C27.1322 34.5317 26.6842 34.345 26.2178 34.3434C25.7514 34.3418 25.3048 34.5256 24.9761 34.8543C24.6474 35.183 24.4636 35.6297 24.4652 36.0961C24.4667 36.5625 24.6535 37.0104 24.9844 37.3413C25.3153 37.6722 25.7632 37.859 26.2296 37.8605C26.696 37.8621 27.1427 37.6783 27.4714 37.3496ZM47.5242 38.8853C47.8536 39.2147 48.2995 39.4007 48.7638 39.4022C49.2281 39.4038 49.6727 39.2208 49.9999 38.8936C50.3271 38.5664 50.5101 38.1218 50.5085 37.6575C50.507 37.1932 50.321 36.7473 49.9916 36.4179C49.6622 36.0885 49.2163 35.9026 48.752 35.901C48.2878 35.8994 47.8431 36.0824 47.5159 36.4096C47.1887 36.7368 47.0057 37.1815 47.0073 37.6457C47.0089 38.11 47.1948 38.5559 47.5242 38.8853ZM47.0127 39.0468C46.7778 38.7901 46.4725 38.6084 46.1354 38.5247C45.7983 38.4411 45.4446 38.4593 45.1192 38.5771C44.7938 38.6948 44.5114 38.9068 44.3077 39.1861C44.104 39.4654 43.9883 39.7995 43.9752 40.146C43.9622 40.4924 44.0523 40.8356 44.2342 41.1321C44.4162 41.4285 44.6817 41.6649 44.9971 41.8111C45.3125 41.9573 45.6637 42.0068 46.0059 41.9534C46.3482 41.9 46.6663 41.746 46.9197 41.5109C47.0887 41.357 47.2254 41.1709 47.3216 40.9633C47.4179 40.7558 47.472 40.5309 47.4806 40.3017C47.4893 40.0726 47.4524 39.8436 47.372 39.6282C47.2917 39.4128 47.1696 39.2152 47.0127 39.0468ZM33.4131 45.7476C33.5725 45.9144 33.763 46.0484 33.9737 46.142C34.1844 46.2355 34.4112 46.2867 34.6411 46.2927C34.871 46.2987 35.0996 46.2594 35.3137 46.1769C35.5278 46.0944 35.7233 45.9705 35.889 45.8121C36.1412 45.5733 36.3162 45.2645 36.3919 44.9249C36.4675 44.5853 36.4405 44.2301 36.3141 43.9046C36.1877 43.579 35.9677 43.2977 35.6819 43.0963C35.3962 42.8949 35.0577 42.7826 34.7093 42.7735C34.3609 42.7644 34.0184 42.859 33.7252 43.0453C33.432 43.2316 33.2013 43.5012 33.0624 43.8198C32.9235 44.1384 32.8827 44.4918 32.9451 44.835C33.0076 45.1782 33.1705 45.4959 33.4131 45.7476Z" fill="black" stroke="#992258" stroke-width="0.5" stroke-miterlimit="10"/>
<path d="M51.6503 19.2567C51.1946 19.2496 50.7557 19.2481 50.3223 19.2185C50.3223 19.2185 50.1981 19.0943 50.1699 19.0661C50.1816 18.9875 50.2238 18.9169 50.2874 18.8695C50.3997 18.7979 50.526 18.7509 50.658 18.7317C50.7901 18.7125 50.9249 18.7215 51.0537 18.758C51.1824 18.7946 51.3021 18.8579 51.4049 18.9439C51.5078 19.0298 51.5914 19.1364 51.6503 19.2567Z" fill="black" stroke="#992258" stroke-width="0.5" stroke-miterlimit="10"/>
<path d="M27.7434 42.9266C27.3441 42.9872 26.9279 43.0533 26.5061 43.0913C26.5061 43.0913 26.4153 42.8771 26.3699 42.7645C26.6408 42.6782 26.9231 42.6317 27.2078 42.6266C27.4061 42.6858 27.5891 42.7883 27.7434 42.9266Z" fill="black" stroke="#992258" stroke-width="0.5" stroke-miterlimit="10"/>
<path d="M40.4853 17.0531L39.1177 16.9416L39.0328 16.7894C39.2237 16.6887 39.4144 16.4868 39.5888 16.5043C39.9284 16.5571 40.261 16.6488 40.58 16.7777L40.4853 17.0531Z" fill="black" stroke="#992258" stroke-width="0.5" stroke-miterlimit="10"/>
<path d="M42.9074 16.1553C43.4004 15.5268 44.149 15.5912 44.4326 16.2786L42.9074 16.1553Z" fill="black" stroke="#992258" stroke-width="0.5" stroke-miterlimit="10"/>
<path d="M54.6059 26.463C54.1782 26.4503 53.7506 26.4489 53.3285 26.4193C53.3285 26.4193 53.2771 26.1997 53.2486 26.0815C53.5282 26.0022 53.818 25.9634 54.1091 25.9662C54.3358 26.0528 54.5443 26.1814 54.7237 26.3452L54.6059 26.463Z" fill="black" stroke="#992258" stroke-width="0.5" stroke-miterlimit="10"/>
<path d="M53.9156 30.3712C53.4148 30.3527 52.9927 30.3456 52.5763 30.3217C52.5395 30.3096 52.506 30.2889 52.4785 30.2614C52.451 30.234 52.4304 30.2005 52.4182 30.1637C52.4263 30.1139 52.4443 30.0664 52.4712 30.024C52.4981 29.9815 52.5334 29.945 52.5749 29.9166C52.813 29.8067 53.0847 29.7926 53.3341 29.8772C53.5835 29.9618 53.7917 30.1386 53.9156 30.3712Z" fill="black" stroke="#992258" stroke-width="0.5" stroke-miterlimit="10"/>
<path d="M43.0261 41.4979L42.6883 41.463L41.9004 41.4041C41.7991 41.3925 41.6696 41.3752 41.6244 41.3075C41.5792 41.2399 41.6294 41.1106 41.691 41.0489C41.8908 40.9408 42.1193 40.8968 42.3457 40.9227C42.5722 40.9486 42.7857 41.0432 42.9575 41.1938C43.0084 41.2559 43.0087 41.3572 43.0261 41.4979Z" fill="black" stroke="#992258" stroke-width="0.5" stroke-miterlimit="10"/>
<path d="M46.7757 16.9841C46.8451 16.8631 46.9389 16.758 47.0512 16.6754C47.1636 16.5929 47.292 16.5346 47.4283 16.5044C47.5647 16.4742 47.706 16.4727 47.8433 16.4999C47.9807 16.5271 48.1111 16.5825 48.2263 16.6626C48.2545 16.7022 48.2746 16.7471 48.2854 16.7944C48.2962 16.8418 48.2974 16.8908 48.2891 16.9385C48.2611 16.9665 48.1658 17.0619 48.0926 17.0448C48.0194 17.0276 47.6926 16.914 47.4844 16.8964C47.2457 16.9026 47.0084 16.9319 46.7757 16.9841Z" fill="black" stroke="#992258" stroke-width="0.5" stroke-miterlimit="10"/>
<path d="M30.0547 44.2397C30.2756 44.1166 30.5175 44.0354 30.7684 44.0001C31.0326 44.0505 31.2874 44.1426 31.5233 44.2727C31.4448 44.3512 31.4118 44.5874 31.3668 44.5873C30.9503 44.5409 30.5337 44.4607 30.1115 44.3974L30.0547 44.2397Z" fill="black" stroke="#992258" stroke-width="0.5" stroke-miterlimit="10"/>
<path d="M39.3395 42.8586L37.91 42.7525L37.8195 42.6059C38.0093 42.4615 38.2274 42.3588 38.4599 42.3042C38.7974 42.2716 39.2363 42.2843 39.3395 42.8586Z" fill="black" stroke="#992258" stroke-width="0.5" stroke-miterlimit="10"/>
<path d="M29.3575 27.605C29.0089 27.6714 28.5928 27.7487 28.171 27.8092C28.1332 27.799 28.0986 27.779 28.0709 27.7512C28.0431 27.7235 28.0231 27.689 28.0129 27.6511C28.0187 27.6035 28.0341 27.5575 28.0582 27.516C28.0822 27.4745 28.1144 27.4384 28.1527 27.4097C28.342 27.2904 28.5687 27.2444 28.7904 27.2804C29.0122 27.3163 29.2138 27.4317 29.3575 27.605Z" fill="black" stroke="#992258" stroke-width="0.5" stroke-miterlimit="10"/>
<path d="M28.1499 31.6127L26.6528 31.4839L26.5343 31.3654C26.7065 31.2356 26.9004 31.1372 27.1072 31.0747C27.3159 31.0105 27.5421 31.0308 27.7371 31.1314C27.932 31.232 28.0803 31.4049 28.1499 31.6127Z" fill="black" stroke="#992258" stroke-width="0.5" stroke-miterlimit="10"/>
<path d="M32.4021 21.049C32.5984 20.9254 32.8184 20.8438 33.0483 20.8092C33.3415 20.8602 33.625 20.9581 33.8877 21.099C33.9159 21.1272 33.9445 21.268 33.9109 21.3241C33.8839 21.3535 33.8509 21.3767 33.8141 21.3921C33.7772 21.4075 33.7374 21.4148 33.6974 21.4134C33.309 21.3615 32.9206 21.2983 32.5321 21.2351L32.4021 21.049Z" fill="black" stroke="#992258" stroke-width="0.5" stroke-miterlimit="10"/>
<path d="M35.4827 18.5442C35.7117 18.4225 35.958 18.3361 36.2133 18.2878C36.5508 18.2777 36.9448 18.3128 37.0197 18.8476L35.5564 18.7189L35.4827 18.5442Z" fill="black" stroke="#992258" stroke-width="0.5" stroke-miterlimit="10"/>
<path d="M50.5675 33.629C50.781 33.5397 50.9999 33.366 51.2137 33.378C51.5091 33.4286 51.7957 33.5224 52.0643 33.6566C52.0196 33.7689 51.964 33.9713 51.9303 33.9712C51.5082 33.9304 51.0803 33.8614 50.6469 33.8094L50.5675 33.629Z" fill="black" stroke="#992258" stroke-width="0.5" stroke-miterlimit="10"/>
<path d="M53.8211 22.3023C53.4331 22.3742 53.0452 22.4685 52.6571 22.5178C52.6291 22.5459 52.499 22.3598 52.4536 22.2358C52.713 22.1281 52.9882 22.0626 53.2688 22.0416C53.5052 22.0649 53.7085 22.2907 53.9284 22.4208L53.8211 22.3023Z" fill="black" stroke="#992258" stroke-width="0.5" stroke-miterlimit="10"/>
<path d="M29.8523 24.1182C30.0429 23.9871 30.2592 23.8977 30.4872 23.8559C30.782 23.9004 31.0665 23.9986 31.3265 24.1456C31.3265 24.1456 31.3834 24.3146 31.3498 24.3708C31.3267 24.4025 31.2963 24.4282 31.2611 24.4457C31.2259 24.4632 31.187 24.472 31.1476 24.4714C30.7479 24.4194 30.3538 24.3506 29.9597 24.2817L29.8523 24.1182Z" fill="black" stroke="#992258" stroke-width="0.5" stroke-miterlimit="10"/>
<path d="M24.8614 39.2709C24.9565 39.1081 25.0234 38.9057 25.0853 38.9116C25.4958 38.9236 25.9054 38.9588 26.3122 39.017C26.3411 39.0541 26.3616 39.097 26.3724 39.1426C26.3833 39.1883 26.3842 39.2357 26.375 39.2816C26.3302 39.3265 26.2122 39.388 26.1222 39.3877C25.8183 39.3754 25.52 39.335 25.2104 39.3059C25.0922 39.2998 25.0134 39.2771 24.8614 39.2709Z" fill="black" stroke="#992258" stroke-width="0.5" stroke-miterlimit="10"/>
<path d="M25.5515 35.2839C25.8987 34.8124 26.7088 34.7476 26.9745 35.1367C26.9949 35.1702 27.0085 35.2073 27.0144 35.246C27.0203 35.2846 27.0185 35.324 27.009 35.3619C26.9892 35.3977 26.9609 35.4281 26.9267 35.4505C26.8925 35.4729 26.8533 35.4867 26.8125 35.4907C26.4241 35.45 26.0131 35.3642 25.5515 35.2839Z" fill="black" stroke="#992258" stroke-width="0.5" stroke-miterlimit="10"/>
<path d="M48.057 36.7041C48.2742 36.5826 48.5094 36.496 48.7539 36.4476C48.9417 36.4218 49.133 36.4641 49.2933 36.5668C49.4535 36.6694 49.5722 36.8258 49.6279 37.0075L48.1646 36.9014L48.057 36.7041Z" fill="black" stroke="#992258" stroke-width="0.5" stroke-miterlimit="10"/>
<path d="M45.0161 39.2821C45.2352 39.1872 45.454 38.991 45.6622 39.0086C45.9499 39.0729 46.2282 39.1741 46.4904 39.3096C46.4006 39.3993 46.3055 39.5621 46.2268 39.5731C45.8666 39.5494 45.5063 39.4807 45.1404 39.4288L45.0161 39.2821Z" fill="black" stroke="#992258" stroke-width="0.5" stroke-miterlimit="10"/>
<path d="M35.3979 43.6387C35.0324 43.6993 34.6275 43.7768 34.2226 43.8317C34.1874 43.8193 34.1554 43.7992 34.129 43.7728C34.1026 43.7464 34.0825 43.7144 34.0701 43.6792C34.025 43.6341 34.0751 43.4711 34.1088 43.4599C34.3992 43.3775 34.7006 43.3386 35.003 43.3448C35.1597 43.4033 35.2967 43.5052 35.3979 43.6387Z" fill="black" stroke="#992258" stroke-width="0.5" stroke-miterlimit="10"/>
</svg>
