<svg width="154" height="154" viewBox="0 0 154 154" fill="none" xmlns="http://www.w3.org/2000/svg">
<circle cx="77" cy="77" r="77" fill="#FDD98A"/>
<path d="M77.0027 39.6804C74.0074 39.6814 71.0797 40.5705 68.5897 42.2354C66.0997 43.9002 64.1593 46.2659 63.0137 49.0335C61.8682 51.801 61.569 54.8461 62.1539 57.7837C62.7389 60.7213 64.1818 63.4194 66.3001 65.5371C68.4184 67.6547 71.1171 69.0966 74.0549 69.6806C76.9927 70.2646 80.0376 69.9644 82.8048 68.8179C85.572 67.6714 87.9371 65.7302 89.601 63.2397C91.265 60.7491 92.1531 57.8211 92.1531 54.8258C92.1531 52.8365 91.7612 50.8666 90.9998 49.0288C90.2383 47.1909 89.1223 45.5211 87.7154 44.1146C86.3084 42.7082 84.6382 41.5927 82.8001 40.8318C80.962 40.071 78.992 39.6798 77.0027 39.6804ZM77.0027 66.868C74.6199 66.867 72.291 66.1595 70.3104 64.8349C68.3298 63.5103 66.7865 61.6281 65.8756 59.4264C64.9647 57.2246 64.7271 54.8022 65.1929 52.4655C65.6588 50.1287 66.8071 47.9826 68.4926 46.2985C70.1782 44.6143 72.3253 43.4679 74.6624 43.004C76.9995 42.5401 79.4217 42.7797 81.6227 43.6925C83.8237 44.6052 85.7045 46.1502 87.0275 48.1319C88.3504 50.1136 89.056 52.4431 89.055 54.8258C89.055 56.4081 88.7432 57.9748 88.1374 59.4365C87.5316 60.8982 86.6436 62.2262 85.5243 63.3445C84.405 64.4629 83.0763 65.3497 81.6141 65.9543C80.1519 66.5589 78.5849 66.8694 77.0027 66.868Z" fill="#992258"/>
<path d="M103.357 91.8818V102.177L78.6583 109.541V81.2617C78.6583 81.2617 94.8094 73.3691 103.357 74.9486V83.2679C103.846 83.0929 104.362 83.0036 104.881 83.0038C105.424 83.004 105.963 83.1038 106.471 83.2984V70.6264C97.5012 68.9707 81.8428 75.6444 77.0127 77.8436C72.1877 75.6444 56.5293 68.9707 47.5447 70.6264V83.2984C48.054 83.1042 48.5944 83.0044 49.1395 83.0038C49.6587 83.0047 50.1739 83.094 50.6632 83.2679V74.9486C59.2263 73.3691 75.3621 81.2617 75.3621 81.2617V109.541L50.6632 102.177V91.8818C50.1731 92.0519 49.6582 92.1394 49.1395 92.1408C48.5949 92.1395 48.055 92.0414 47.5447 91.8513V104.691L75.5398 113.041V113.909L76.9975 113.472L78.4602 113.909V113.041L106.46 104.691V91.8412C105.952 92.0313 105.414 92.1294 104.871 92.1307C104.356 92.1322 103.844 92.0481 103.357 91.8818Z" fill="#992258"/>
<path d="M104.871 83.4711C104.05 83.4681 103.247 83.7087 102.564 84.1625C101.88 84.6163 101.346 85.2628 101.031 86.0201C100.715 86.7774 100.631 87.6115 100.789 88.4165C100.948 89.2216 101.342 89.9615 101.921 90.5424C102.501 91.1234 103.24 91.5192 104.045 91.6798C104.849 91.8404 105.683 91.7585 106.442 91.4444C107.2 91.1304 107.847 90.5985 108.303 89.9159C108.758 89.2334 109.001 88.431 109 87.6104C109 86.5144 108.565 85.4631 107.791 84.6871C107.017 83.9111 105.967 83.4738 104.871 83.4711ZM104.871 90.541C104.291 90.541 103.725 90.3691 103.243 90.0471C102.761 89.7251 102.385 89.2674 102.163 88.7319C101.942 88.1964 101.884 87.6072 101.997 87.0387C102.11 86.4702 102.389 85.9481 102.799 85.5382C103.208 85.1284 103.731 84.8493 104.299 84.7362C104.868 84.6231 105.457 84.6812 105.992 84.903C106.528 85.1248 106.985 85.5004 107.308 85.9823C107.63 86.4642 107.801 87.0308 107.801 87.6104C107.801 88.3877 107.493 89.1331 106.943 89.6827C106.393 90.2322 105.648 90.541 104.871 90.541Z" fill="#992258"/>
<path d="M53.2888 87.6104C53.2888 86.7905 53.0456 85.989 52.59 85.3074C52.1344 84.6257 51.4868 84.0945 50.7292 83.781C49.9717 83.4675 49.1381 83.3857 48.334 83.546C47.5299 83.7063 46.7915 84.1016 46.2121 84.6817C45.6327 85.2618 45.2384 86.0007 45.079 86.805C44.9197 87.6093 45.0025 88.4427 45.3169 89.1999C45.6314 89.9572 46.1634 90.6041 46.8456 91.0589C47.5278 91.5136 48.3296 91.7558 49.1495 91.7548C49.6935 91.7548 50.2322 91.6476 50.7347 91.4393C51.2373 91.2309 51.6938 90.9256 52.0783 90.5407C52.4627 90.1558 52.7675 89.6988 52.9752 89.196C53.1829 88.6932 53.2895 88.1544 53.2888 87.6104ZM46.2189 87.6104C46.2189 87.0308 46.3908 86.4642 46.7128 85.9823C47.0348 85.5004 47.4925 85.1248 48.028 84.9029C48.5635 84.6811 49.1528 84.6231 49.7212 84.7362C50.2897 84.8493 50.8119 85.1284 51.2217 85.5382C51.6316 85.9481 51.9107 86.4702 52.0237 87.0387C52.1368 87.6072 52.0788 88.1964 51.857 88.7319C51.6352 89.2674 51.2596 89.7251 50.7776 90.0471C50.2957 90.3691 49.7291 90.541 49.1495 90.541C48.7645 90.5416 48.3831 90.4663 48.0272 90.3193C47.6714 90.1722 47.3481 89.9564 47.0758 89.6841C46.8035 89.4119 46.5877 89.0885 46.4407 88.7327C46.2936 88.3768 46.2183 87.9955 46.2189 87.6104Z" fill="#992258"/>
</svg>
