<svg width="413" height="406" viewBox="0 0 413 406" fill="none" xmlns="http://www.w3.org/2000/svg">
<path d="M123.458 386.944C123.186 374.756 134.703 361.137 147.13 358.004L132.927 353.535C132.288 355.675 131.744 357.921 130.962 360.073C126.737 371.647 117.943 377.971 106.415 380.962C103.314 381.766 102.236 381.021 101.23 377.912C96.8866 364.435 99.7627 352.743 110.025 342.919C110.628 342.411 111.269 341.949 111.942 341.536L100.792 331.452C103.242 345.413 99.4076 357.2 87.4178 366.303C81.4998 352.365 83.867 340.294 93.3358 329.395C89.6903 330.175 86.0093 331.227 82.2454 331.664C79.4521 331.995 76.5641 331.511 73.7235 331.44C71.7351 331.44 69.7348 331.44 67.8055 331.44L67.6753 332.291C69.5572 333.331 71.4865 334.301 73.3092 335.424C80.6949 339.987 82.6242 347.92 77.9253 354.174C76.7313 355.72 75.1007 356.873 73.244 357.484C71.3874 358.095 69.3899 358.136 67.5096 357.602C65.8593 357.054 64.4236 356 63.4061 354.591C62.3885 353.182 61.8407 351.489 61.8402 349.752C61.8402 345.555 64.6216 343.238 68.7879 343.936C70.0353 344.067 71.2432 344.449 72.3387 345.059C72.6475 345.388 72.8739 345.786 72.9993 346.219C73.1248 346.653 73.1458 347.11 73.0607 347.553C72.8603 347.9 72.5749 348.191 72.2312 348.398C71.8875 348.605 71.4969 348.721 71.0959 348.735C70.1636 348.482 69.3223 347.969 68.6695 347.258C68.0659 346.69 67.4859 345.201 67.261 345.272C66.1317 345.572 65.1049 346.172 64.2902 347.009C63.8462 347.59 63.5252 348.255 63.3468 348.963C63.1684 349.672 63.1364 350.409 63.2527 351.13C63.369 351.851 63.6312 352.542 64.0232 353.158C64.4152 353.775 64.9289 354.305 65.533 354.717C67.0114 355.802 68.825 356.333 70.6558 356.216C72.4866 356.099 74.2179 355.343 75.5462 354.079C79.1562 350.532 79.819 345.945 77.3098 341.831C74.9426 338.025 71.3918 335.92 67.4149 334.194C65.883 333.642 64.4518 332.843 63.1776 331.83L67.912 330.198C65.4149 328.389 63.0424 326.414 60.8104 324.287C56.8335 320.043 55.0818 314.995 57.449 309.321C58.4538 306.751 60.2113 304.544 62.4918 302.987C64.7723 301.431 67.4698 300.597 70.2319 300.596C77.4755 300.324 81.772 305.419 81.4287 310.515C81.3306 311.567 81.0084 312.587 80.484 313.505C79.9595 314.423 79.2447 315.219 78.3875 315.839C77.5303 316.459 76.5504 316.889 75.5134 317.1C74.4763 317.312 73.4061 317.299 72.3742 317.064C71.4478 316.731 70.6824 316.059 70.2319 315.184C70.7312 315.125 71.2358 315.125 71.7351 315.184C75.6646 316.166 77.9845 315.267 79.2628 312.229C79.8504 310.73 79.8952 309.073 79.3895 307.545C78.8837 306.017 77.8593 304.713 76.4931 303.859C70.0662 299.65 59.9227 304.072 58.4787 311.626C57.0347 319.18 62.3609 326.368 69.1311 328.886C69.9526 329.164 70.8426 329.164 71.664 328.886C85.0269 323.566 89.8205 307.311 81.9732 297.309C80.3774 295.231 78.2037 293.668 75.7238 292.817C70.9791 291.574 66.16 290.634 61.2957 290.003C60.0498 289.98 58.8068 290.132 57.6029 290.453L57.4135 291.138L63.9351 295.288C63.2777 295.758 62.5853 296.177 61.8638 296.541C53.5786 300.005 50.1462 306.602 49.6609 315.102C49.365 320.138 50.6196 319.748 44.82 319.547C42.9144 319.488 41.0206 319.216 38.973 319.027C36.6058 309.675 39.7897 301.849 45.7905 295.193C42.2397 295.193 38.6889 295.359 35.0671 295.193C30.1315 294.91 26.0481 292.451 22.3197 289.412C22.0875 289.069 21.9425 288.674 21.8971 288.262C21.8517 287.85 21.9074 287.434 22.0594 287.048C22.9234 284.991 24.1662 283.076 25.0184 281.019C25.6575 279.458 26.3203 279.387 27.7406 280.085C30.4747 281.543 33.3447 282.731 36.3099 283.631C42.2279 285.133 47.5896 283.631 52.4305 280.002C53.0105 279.565 53.6141 279.234 54.6557 278.607V286.469L55.2002 286.741C55.8793 286.051 56.5157 285.321 57.1058 284.553C60.5546 279.539 62.497 273.645 62.7042 267.565C63.0356 260.2 57.6265 253.556 49.6846 251.57C43.8516 250.049 37.6623 250.727 32.2975 253.473C28.9361 255.128 27.5631 257.375 27.717 261.217C28.0484 267.577 32.4514 273.937 38.1918 275.569C45.5538 277.661 53.5786 271.514 53.3537 264.007C53.2354 260.543 50.7735 257.516 47.779 257.162C47.0082 257.016 46.2151 257.036 45.4526 257.22C44.6901 257.405 43.9759 257.75 43.3575 258.232C42.7392 258.714 42.2309 259.323 41.8667 260.017C41.5025 260.711 41.2907 261.475 41.2455 262.257C41.2455 262.671 40.7366 263.049 40.417 263.522C38.9257 260.46 41.6006 256.358 45.4236 255.601C51.5783 254.419 56.3956 260.389 54.6084 267.021C52.9158 273.275 46.8084 277.98 40.7011 277.732C34.3688 277.484 28.6994 272.412 27.3382 265.591C26.8648 263.226 26.7819 260.862 26.486 258.013L21.8936 261.926C22.0949 260.011 22.2251 258.793 22.3553 257.587C23.0062 251.676 23.314 245.895 18.5085 241.391C17.2487 240.177 15.6587 239.36 13.9368 239.042C12.215 238.725 10.4376 238.921 8.8267 239.606C7.44453 240.01 6.21424 240.816 5.29294 241.921C4.37165 243.027 3.80117 244.382 3.65437 245.813C3.46294 247.103 3.67653 248.421 4.26575 249.586C4.85497 250.75 5.79089 251.703 6.94477 252.315C9.67889 253.674 11.2412 253.237 13.1823 250.447C12.6971 250.033 11.9277 249.667 11.7739 249.135C11.5135 248.177 11.1939 246.77 11.6673 246.155C12.042 245.811 12.4993 245.57 12.9948 245.454C13.4903 245.338 14.0074 245.351 14.4961 245.493C14.9083 245.833 15.2314 246.268 15.4376 246.76C15.6438 247.252 15.7269 247.787 15.6797 248.319C14.6618 253.355 11.6792 255.412 7.5129 254.123C6.47264 253.818 5.50897 253.296 4.68546 252.592C3.86196 251.888 3.19732 251.017 2.7354 250.037C2.27348 249.057 2.02477 247.991 2.00568 246.908C1.98659 245.825 2.19754 244.751 2.62463 243.756C3.33272 241.892 4.5894 240.287 6.22903 239.152C7.86865 238.017 9.81425 237.404 11.8094 237.395C16.8042 237.395 21.4557 240.138 22.9352 244.772C23.8466 247.586 23.8703 250.683 24.2017 253.674C24.203 254.955 24.3904 256.23 24.758 257.457C25.6102 256.358 26.8529 255.388 27.2435 254.147C29.4687 247.054 33.919 241.746 39.5766 237.23C39.8517 236.943 40.1087 236.639 40.346 236.319C25.6693 239.5 14.0464 235.102 4.70777 223.493C11.0755 219.946 17.5498 219.591 24.1188 220.525C30.6878 221.459 36.4874 224.663 41.6243 229.309L38.5351 214.981C35.8246 215.524 32.9485 216.34 30.0131 216.671C18.473 218.019 9.05158 213.846 1.32267 205.405C-0.440891 203.478 -0.440891 201.728 1.32267 199.766C6.54154 193.671 13.7871 189.662 21.7279 188.476C27.3785 187.652 33.1464 188.312 38.4641 190.391C39.4701 185.662 40.4643 180.933 41.5059 175.98C30.676 185.272 18.5441 187.494 5.05101 182.08C9.61971 171.806 23.9886 166.345 39.5648 168.496C36.7715 165.257 33.5876 161.888 30.8062 158.211C29.3858 156.331 28.723 153.896 27.5986 151.768C26.8056 150.279 25.7995 148.895 24.5686 146.921C24.2017 151.378 24.2727 155.031 23.527 158.507C22.4618 163.401 19.2069 166.38 14.1529 167.361C12.3745 167.794 10.5106 167.722 8.77088 167.154C7.03117 166.586 5.48467 165.544 4.30535 164.146C0.0207132 159.346 1.93815 152.146 7.91533 150.68C12.0106 149.664 16.3899 153.482 15.7153 157.644C15.5841 158.111 15.3488 158.544 15.0271 158.908C14.7053 159.272 14.3053 159.56 13.857 159.748C13.4107 159.809 12.9561 159.751 12.54 159.578C12.1239 159.406 11.7614 159.126 11.4898 158.767C11.2155 157.833 11.2784 156.833 11.6673 155.941C11.8449 155.397 12.6142 155.043 13.1113 154.617C11.3123 151.603 8.37693 151.165 5.74934 153.435C5.02049 154.111 4.446 154.936 4.06498 155.854C3.68395 156.771 3.50533 157.76 3.54127 158.753C3.57721 159.746 3.82687 160.719 4.27325 161.607C4.71964 162.495 5.35227 163.276 6.12809 163.898C7.20764 164.773 8.46502 165.404 9.813 165.746C11.161 166.088 12.5673 166.132 13.9343 165.877C15.3014 165.622 16.5964 165.072 17.7297 164.267C18.8629 163.462 19.8072 162.42 20.497 161.214C23.2074 156.781 22.8642 151.969 22.2724 147.134C22.1422 146.058 22.0002 144.97 21.87 143.895L22.4618 143.54L26.3913 147.087C26.6991 144.356 26.7938 141.908 27.279 139.544C28.723 132.451 33.6823 127.722 40.4525 127.296C46.0864 126.93 50.2882 129.826 53.1525 134.39C54.4201 136.196 55.0773 138.359 55.0283 140.564C54.9794 142.769 54.2268 144.901 52.8803 146.649C51.9499 147.963 50.5937 148.917 49.0409 149.347C47.4882 149.778 45.8341 149.66 44.3584 149.014C42.8207 148.422 41.5451 147.301 40.7617 145.853C39.9782 144.405 39.7385 142.725 40.0856 141.116C40.551 141.653 40.9486 142.244 41.2692 142.878C42.4528 146.614 44.4531 148.21 47.6961 147.808C49.235 147.524 50.6313 146.726 51.6553 145.544C52.6793 144.362 53.27 142.867 53.3301 141.306C53.5905 136.21 51.0576 132.817 46.7374 130.524C42.4173 128.23 38.1682 128.301 34.3096 131.221C29.2201 135.064 27.208 140.443 27.8827 146.732C28.022 147.823 28.5466 148.829 29.3622 149.569C36.2744 155.161 47.9329 155.705 55.1765 150.893C61.4141 146.744 63.8878 140.537 62.1479 132.593C61.116 127.067 58.5906 121.928 54.8451 117.732V126.232C54.1695 125.966 53.5164 125.646 52.8921 125.275C45.0567 119.257 36.9254 119.565 28.7349 124.353C26.5689 125.618 25.3853 125.665 24.6159 123.076C24.2681 122.099 23.8282 121.157 23.3021 120.262C21.1361 116.03 21.1717 116.089 25.2077 113.441C31.2086 109.504 37.6947 108.712 44.5833 110.214C44.8352 110.275 45.0934 110.307 45.3526 110.308C45.6128 110.274 45.8674 110.207 46.1101 110.107C39.908 103.191 36.736 95.4123 39.0085 85.8719C42.0267 85.6709 45.1159 85.3636 48.2051 85.3517C48.6904 85.3517 49.4597 86.6876 49.6017 87.4915C50.1462 90.5416 50.0988 93.7336 50.9865 96.6536C51.7696 99.3624 53.1855 101.847 55.1177 103.902C57.0499 105.957 59.4432 107.525 62.1006 108.476C62.7886 108.793 63.4566 109.153 64.1008 109.552L57.1649 113.973C60.8933 115.853 64.2665 114.481 67.4741 114.351C69.1881 114.166 70.8805 113.818 72.5281 113.311C84.4351 110.403 87.3823 100.082 84.944 90.849C84.1359 87.7383 82.6286 84.8525 80.5367 82.4107C78.4448 79.969 75.8233 78.0355 72.8713 76.7571C71.3969 76.1449 69.7472 76.1027 68.2434 76.6389C64.9475 77.9135 62.1874 80.2762 60.4218 83.3344C58.6562 86.3926 57.9914 89.9621 58.5379 93.4499C59.8399 100.318 68.8944 104.976 75.274 102.033C79.8072 99.952 81.192 94.3838 78.1147 91.0854C77.4715 90.3173 76.6099 89.7623 75.644 89.4942C74.678 89.2261 73.6533 89.2574 72.7056 89.584C71.9126 89.8205 71.0959 89.9623 69.9715 90.2224C70.871 87.9171 72.5636 87.7634 74.1496 87.858C75.6369 87.8414 77.0926 88.2878 78.3143 89.1352C79.536 89.9826 80.4632 91.189 80.9671 92.5868C81.5427 94.0022 81.6801 95.5576 81.3615 97.0518C81.0429 98.546 80.283 99.9104 79.1799 100.969C74.9071 105.698 66.8705 105.698 61.3667 100.969C55.2948 95.8143 54.7267 87.5388 60.337 81.3914C62.6814 79.0574 65.1677 76.8701 67.7818 74.8419L62.4911 72.9386C64.7163 72.0046 66.1958 71.4372 67.628 70.7751C72.6228 68.4817 77.0968 65.6798 78.671 59.9107C79.5705 56.5414 77.7714 52.2973 74.5165 50.0038C73.143 49.1764 71.5585 48.765 69.9554 48.8195C68.3524 48.8741 66.7996 49.3923 65.4856 50.3112C62.2307 52.6756 62.3965 57.6881 65.7697 59.4378C67.1309 60.1589 68.1369 60.1235 68.3973 58.3738C68.4188 58.0049 68.5265 57.6462 68.7118 57.3264C68.8971 57.0066 69.1549 56.7347 69.4645 56.5323C69.774 56.33 70.1268 56.203 70.4944 56.1615C70.862 56.1199 71.2342 56.165 71.5812 56.2931C72.3108 56.7084 72.85 57.391 73.0844 58.1965C72.2795 59.225 71.2971 60.6436 70.1845 60.8328C65.2844 61.6485 63.58 60.8328 62.3136 57.96C61.6973 56.4275 61.5829 54.7394 61.987 53.1379C62.391 51.5364 63.2926 50.104 64.5624 49.0462C65.9585 47.8675 67.6869 47.1512 69.5083 46.9966C71.3298 46.842 73.1544 47.2566 74.7296 48.1832C80.8843 51.6707 82.494 60.419 77.5229 65.5616C74.7177 68.458 71.1669 70.6333 68.0541 73.0686C70.2792 74.7474 73.1791 73.7661 75.9013 73.3405C81.4146 72.6281 87.0182 73.4206 92.1167 75.634L93.0754 75.965C93.1346 75.965 93.2292 75.8941 93.5015 75.7641C84.0327 64.8286 81.4998 52.6992 87.4178 38.6783C99.3958 47.8049 103.231 59.5442 100.71 73.6243L111.469 63.812C109.587 61.684 107.29 59.4614 105.42 56.9079C98.4963 47.4502 97.7032 37.0586 101.432 26.1705C101.52 25.7652 101.692 25.3824 101.935 25.0463C102.178 24.7101 102.489 24.4278 102.847 24.2169C103.204 24.0061 103.602 23.8713 104.014 23.8209C104.426 23.7706 104.845 23.8058 105.243 23.9243C111.457 25.0638 117.261 27.8159 122.074 31.9042C128.122 37.1532 131.294 43.8327 132.726 51.5052L146.74 47.0837C133.874 42.2367 125.163 33.3229 123.127 17.9896C138.514 19.8694 147.663 28.3812 152.717 42.816C153.534 35.1671 155.806 28.8541 160.446 23.4514C161.67 21.8962 162.484 20.0588 162.813 18.1079C159.811 19.7536 156.717 21.2259 153.546 22.5175C146.515 25.0238 139.757 21.158 137.993 13.9347C137.604 12.1504 137.745 10.2914 138.399 8.58608C139.053 6.88074 140.191 5.40328 141.674 4.33517C143.153 3.42708 144.872 2.98636 146.606 3.07074C148.34 3.15512 150.008 3.76067 151.391 4.80805C154.812 7.6217 153.924 13.9347 149.782 15.4479C149.262 15.5594 148.724 15.5656 148.202 15.4661C147.679 15.3666 147.182 15.1635 146.74 14.8686C146.542 14.5059 146.438 14.0995 146.438 13.6864C146.438 13.2734 146.542 12.8669 146.74 12.5042C147.653 11.9184 148.691 11.5541 149.77 11.4402C150.101 11.3693 150.527 11.7712 150.953 11.9604C151.314 11.643 151.606 11.2558 151.813 10.8223C152.019 10.3887 152.135 9.91778 152.154 9.43805C152.173 8.95833 152.094 8.47979 151.922 8.03142C151.75 7.58305 151.489 7.17419 151.155 6.82962C150.293 5.79169 149.117 5.06274 147.803 4.75337C146.489 4.44401 145.11 4.57112 143.875 5.11542C138.431 7.4089 137.957 15.2942 143 19.3728C144.335 20.4993 145.948 21.2488 147.671 21.5439C149.394 21.8391 151.165 21.6691 152.8 21.0516C156.149 19.8694 159.179 17.7532 162.269 15.9799C163.329 15.2579 164.341 14.4681 165.299 13.6155C164.873 16.1454 164.565 17.9069 164.21 19.9403C168.293 17.3867 172.365 15.6489 177.004 15.6962C179.798 15.6082 182.546 16.4205 184.842 18.0131C187.137 19.6056 188.859 21.8937 189.752 24.5391C190.722 27.3331 190.804 30.3584 189.986 33.2007C189.168 36.043 187.491 38.5632 185.183 40.4161C179.81 44.4711 172.495 41.882 171.442 35.5454C171.263 34.7723 171.251 33.97 171.406 33.192C171.562 32.4139 171.882 31.6778 172.344 31.0325C172.806 30.3873 173.401 29.8478 174.088 29.4498C174.775 29.0518 175.539 28.8044 176.33 28.7241C176.022 29.2322 175.674 29.7146 175.288 30.1664C172.803 32.6017 172.317 34.9898 173.809 37.5433C174.626 38.8284 175.854 39.7997 177.294 40.2998C178.733 40.7998 180.3 40.7991 181.739 40.2979C186.154 38.8438 188.047 35.2617 188.746 31.124C189.177 29.0219 188.987 26.84 188.199 24.8439C187.411 22.8478 186.059 21.1236 184.307 19.8812C178.946 15.8617 170.4 16.3346 165.251 20.6614C163.085 22.4584 163.227 24.7519 163.334 27.069C163.819 36.7985 169.737 45.5114 178.638 47.5684C181.047 48.1542 183.557 48.1971 185.985 47.6941C188.413 47.1911 190.698 46.1548 192.675 44.6602C197.297 41.3756 200.916 36.8736 203.127 31.6559C203.349 30.9465 203.527 30.224 203.659 29.4925L196.049 33.4884C198.759 21.1225 192.19 13.9465 182.591 8.52018C184.307 5.76564 185.763 3.23572 187.456 0.883127C187.776 0.606472 188.159 0.413138 188.572 0.320324C188.985 0.22751 189.415 0.238094 189.823 0.351134C198.215 3.73224 203.801 9.63145 205.908 19.2664C206.275 17.9187 206.452 17.1266 206.701 16.3582C209.281 8.532 214.584 3.35394 222.088 0.244735C223.449 -0.310902 224.112 0.102871 224.775 1.24961C225.754 3.07533 226.874 4.82236 228.124 6.47496C229.308 7.98818 229.024 8.66204 227.509 9.70238C224.847 11.4591 222.372 13.4833 220.123 15.7435C215.98 20.0703 214.702 25.4375 215.542 31.3368C215.614 31.9042 215.637 32.519 215.72 33.4293L208.867 29.7999C209.352 33.9731 211.53 36.8931 213.897 39.7068C217.448 43.8681 221.555 47.3793 227.26 47.8758C231.653 48.231 236.035 47.0637 239.667 44.5703C243.3 42.0769 245.961 38.4096 247.204 34.1859C247.879 31.9564 248.389 29.6804 248.731 27.3764C249.093 25.8502 248.933 24.2469 248.276 22.822C247.62 21.3972 246.505 20.2329 245.109 19.5147C238.67 15.6607 230.586 16.4291 225.887 21.5954C221.389 26.537 222.597 35.9237 228.254 39.4467C229.393 40.2502 230.745 40.6963 232.139 40.7279C233.533 40.7595 234.904 40.3752 236.078 39.624C238.315 38.2527 239.451 36.1483 238.8 33.713C238.35 32.0224 236.954 30.5683 235.995 29.0433C238.149 28.6413 240.126 30.5565 240.457 33.4529C240.719 34.874 240.55 36.3408 239.973 37.6656C239.395 38.9903 238.434 40.1127 237.214 40.889C235.827 41.7973 234.21 42.2919 232.552 42.315C230.894 42.338 229.263 41.8885 227.852 41.019C222.928 38.229 220.336 31.4668 221.934 25.6503C222.627 22.9072 224.183 20.4586 226.373 18.6647C228.564 16.8707 231.272 15.8261 234.101 15.6843C239.049 15.4597 243.404 17.2212 247.772 19.8457C247.417 17.8596 247.097 16.1099 246.648 13.651C249.358 15.6371 251.382 17.1976 253.501 18.628C256.376 20.5769 259.792 21.5736 263.265 21.4772C264.695 21.4168 266.094 21.039 267.359 20.3713C268.624 19.7036 269.725 18.7627 270.581 17.6169C271.436 16.4712 272.026 15.1495 272.306 13.7477C272.587 12.346 272.551 10.8994 272.201 9.51323C271.018 5.19818 265.479 3.14114 261.975 5.71835C259.679 7.4089 259.359 9.1231 260.863 11.7476C261.786 11.5348 262.851 10.9555 263.644 11.2156C264.088 11.4112 264.488 11.6957 264.817 12.0516C265.147 12.4074 265.4 12.827 265.561 13.2845C265.763 13.8637 265.064 15.3888 264.745 15.3888C263.561 15.3888 261.963 15.3888 261.194 14.6558C257.442 11.0028 257.335 7.37344 260.626 4.66619C263.916 1.95893 269.704 2.76283 272.237 6.20305C276.474 11.9486 272.77 21.1343 265.573 22.9313C260.365 24.2199 256.104 21.9737 251.915 19.5029C251.039 18.9827 250.234 18.3207 249.393 17.7887L248.754 18.167C249.361 19.8578 250.155 21.4756 251.122 22.9904C255.856 28.9014 256.59 30.2964 259.407 42.0948C266.272 26.5725 276.593 17.9778 287.967 18.3325C290.334 27.9438 278.285 42.7569 264.378 47.1665C266.816 47.7694 269.242 48.2423 271.598 48.9753C273.953 49.7082 276.332 50.6895 278.912 51.6825C279.125 50.9614 279.362 50.2875 279.516 49.5782C282.558 35.8055 292.536 27.199 305.555 24.0307C308.716 23.2623 309.757 23.9598 310.739 27.1045C314.858 40.2388 312.231 51.7771 302.513 61.6249C301.791 62.3578 301.034 63.079 300.312 63.8238C300.312 63.8238 300.312 63.9893 300.312 63.6819C304.135 67.2285 307.769 70.586 311.272 73.8489C308.278 59.8279 312.562 48.1359 324.043 38.9502C330.79 47.1547 328.387 62.2987 318.516 75.7168C321.98 74.7325 325.497 73.9431 329.05 73.3524C332.174 73.0095 335.406 73.5297 338.59 73.5652C340.58 73.5915 342.566 73.3852 344.508 72.9504C340.353 70.7633 336.483 68.5762 333.737 64.8168C332.633 63.3022 331.921 61.5381 331.666 59.6819C331.41 57.8258 331.619 55.9353 332.273 54.1793C332.927 52.4232 334.006 50.8562 335.414 49.6181C336.822 48.38 338.515 47.5093 340.341 47.0837C341.799 46.7932 343.31 46.9148 344.702 47.4348C346.095 47.9549 347.315 48.8528 348.224 50.0274C349.163 50.994 349.811 52.205 350.094 53.5222C350.377 54.8393 350.282 56.2092 349.822 57.4753C349.463 58.7395 348.643 59.8234 347.523 60.5129C346.404 61.2024 345.066 61.4473 343.774 61.1993C342.827 61.0811 341.655 61.3057 340.98 60.8328C340.06 60.0787 339.354 59.0962 338.933 57.9837C338.803 57.6527 339.974 56.2695 340.329 56.3522C341.454 56.6005 342.981 57.0379 343.442 57.8891C344.709 60.2535 345.502 60.5018 347.36 58.5511C350.142 55.6193 348.993 51.3042 344.993 49.4718C339.785 47.1074 333.654 51.1269 333.228 57.0616C332.873 61.9914 335.512 65.337 339.205 67.8551C341.408 69.1885 343.697 70.3734 346.058 71.4017L349.408 73.045L344.318 74.7119C347.123 77.3955 350.355 79.8545 352.769 82.9873C354.424 85.1767 355.349 87.8292 355.415 90.5713C355.48 93.3135 354.683 96.0072 353.136 98.2733C351.496 100.57 349.229 102.349 346.607 103.396C343.984 104.444 341.115 104.718 338.341 104.184C336.017 103.778 333.932 102.512 332.502 100.639C331.072 98.7653 330.401 96.422 330.624 94.0764C330.76 93.0699 331.109 92.1037 331.646 91.2418C332.184 90.3798 332.899 89.6417 333.744 89.0763C334.589 88.5108 335.544 88.1309 336.546 87.9617C337.549 87.7924 338.576 87.8377 339.56 88.0945C340.409 88.4231 341.094 89.0731 341.466 89.9032C341.006 89.9626 340.541 89.9626 340.081 89.9032C336.53 88.922 334.636 89.4658 333.098 91.9721C332.321 93.2259 331.99 94.7044 332.157 96.1693C332.325 97.6342 332.981 99 334.021 100.047C337.572 103.794 344.401 103.83 348.958 100.141C350.254 99.0959 351.331 97.8044 352.124 96.3411C352.918 94.8779 353.413 93.2721 353.582 91.6164C353.75 89.9608 353.588 88.2883 353.105 86.6955C352.623 85.1028 351.828 83.6214 350.769 82.3371C349.993 81.289 349.121 80.3154 348.165 79.4289C343.194 75.0902 340.258 75.0665 334.944 79.2043C327.641 84.9025 324.528 93.7454 326.896 101.938C328.422 107.211 331.63 111.041 336.944 112.507C341.291 113.581 345.692 114.418 350.13 115.013C351.457 115.041 352.782 114.894 354.071 114.576L354.308 113.772L347.573 109.492C359.184 105.485 362.64 96.6182 362.451 85.3045C365.741 85.47 368.842 85.5527 371.92 85.8719C372.441 85.931 373.174 86.9832 373.269 87.657C373.931 91.597 373.631 95.6382 372.394 99.4375C371.158 103.237 369.022 106.682 366.167 109.481C365.943 109.717 365.741 109.965 364.984 110.805C374.926 108.05 383.176 109.989 390.526 116.432C389.153 119.222 387.839 122.083 386.301 124.826C386.111 125.157 384.679 125.05 383.933 124.826C380.88 123.726 377.944 122.189 374.82 121.374C369.257 119.908 364.25 121.61 359.693 124.92C359.019 125.393 358.308 125.795 357.137 126.54V118.063C353.586 120.889 352.154 124.376 351.017 127.935C350.21 130.637 349.647 133.407 349.337 136.21C347.905 147.075 358.344 153.695 366.369 154.085C371.511 154.463 376.647 153.267 381.093 150.657C381.931 150.249 382.652 149.636 383.19 148.876C383.728 148.115 384.065 147.232 384.17 146.306C384.916 140.88 381.495 131.28 373.518 129.306C365.895 127.426 357.397 134.579 358.746 141.838C359.409 145.384 361.812 147.749 364.842 147.855C368.109 147.961 369.801 146.401 370.866 142.346C370.973 142.048 371.112 141.762 371.281 141.495H372.038C372.199 142.481 372.199 143.487 372.038 144.474C371.471 146.177 370.308 147.618 368.761 148.533C367.215 149.447 365.39 149.773 363.623 149.451C361.921 149.079 360.387 148.166 359.249 146.848C358.112 145.531 357.433 143.881 357.314 142.145C357.018 138.95 357.86 135.753 359.692 133.117C361.523 130.481 364.227 128.575 367.327 127.734C373.494 125.937 380.205 129.152 383.14 135.513C383.904 137.332 384.46 139.232 384.797 141.176C385.176 143.008 385.283 144.899 385.543 147.087L389.413 143.646L390.029 143.895C389.768 145.774 389.473 147.654 389.224 149.546C388.632 154.168 389.283 158.566 392.171 162.337C393.029 163.485 394.141 164.419 395.42 165.067C396.7 165.715 398.111 166.06 399.545 166.074C400.98 166.087 402.398 165.77 403.689 165.146C404.98 164.523 406.11 163.61 406.99 162.479C407.636 161.662 408.077 160.702 408.273 159.68C408.469 158.657 408.416 157.602 408.117 156.605C407.819 155.607 407.284 154.696 406.558 153.949C405.833 153.202 404.937 152.64 403.948 152.312C403.459 152.092 402.93 151.977 402.394 151.974C401.858 151.971 401.327 152.08 400.835 152.294C400.344 152.507 399.903 152.821 399.54 153.215C399.177 153.609 398.901 154.075 398.728 154.582C399.273 155.031 400.078 155.362 400.208 155.87C400.552 156.862 400.581 157.936 400.291 158.944C399.997 159.267 399.625 159.508 399.21 159.645C398.795 159.782 398.352 159.809 397.923 159.724C397.487 159.443 397.118 159.07 396.842 158.631C396.566 158.191 396.39 157.697 396.326 157.183C396.278 156.337 396.401 155.49 396.687 154.693C396.974 153.896 397.418 153.165 397.993 152.543C398.569 151.92 399.263 151.42 400.036 151.072C400.809 150.724 401.644 150.534 402.492 150.515C404.326 150.568 406.078 151.284 407.423 152.53C408.769 153.775 409.616 155.467 409.807 157.289C409.979 159.195 409.561 161.107 408.608 162.768C407.655 164.428 406.214 165.755 404.481 166.569C402.461 167.479 400.223 167.794 398.03 167.478C395.837 167.162 393.78 166.227 392.1 164.784C387.685 160.753 387.247 155.48 387.591 149.995C387.591 149.392 387.768 148.813 387.851 148.198C387.805 147.905 387.734 147.616 387.638 147.335C386.454 148.73 384.904 149.699 384.513 151.035C382.478 157.762 378.299 162.857 372.997 167.243C372.734 167.472 372.485 167.717 372.251 167.976C372.121 168.174 372.01 168.384 371.92 168.603C386.336 165.647 397.959 169.903 407.321 181.855C393.118 187.601 380.903 185.189 370.251 175.873C371.269 180.472 372.346 185.331 373.423 190.06C375.968 189.54 378.939 188.7 381.969 188.369C393.805 187.069 403.463 191.313 411.097 200.345C411.644 200.858 411.969 201.564 412.002 202.313C412.035 203.061 411.774 203.793 411.274 204.353C406.009 211.107 398.282 215.506 389.78 216.588C384.265 217.257 378.669 216.601 373.458 214.673C372.37 219.591 371.304 224.426 370.275 229.108C380.927 219.792 393.106 217.44 406.753 222.866C403.392 232.726 386.372 239.251 372.37 236.45C374.216 238.459 376.275 240.564 378.157 242.798C381.105 245.97 383.265 249.788 384.466 253.946C384.786 255.27 386.336 256.311 387.425 257.587C387.614 254.159 387.543 251.026 387.981 247.964C389.271 238.849 399.367 234.274 406.327 239.547C408.978 241.568 410.6 245.777 409.677 248.815C409.306 250.252 408.519 251.548 407.413 252.539C406.307 253.529 404.933 254.171 403.463 254.384C399.498 255.093 395.379 250.932 396.361 246.995C396.515 246.578 396.759 246.201 397.077 245.891C397.394 245.58 397.776 245.343 398.196 245.198C398.598 245.143 399.007 245.193 399.384 245.342C399.761 245.491 400.094 245.735 400.35 246.049C400.718 246.877 400.769 247.811 400.492 248.674C400.314 249.324 399.545 249.856 398.989 250.411C399.876 252.776 401.533 253.532 403.96 252.705C408.813 251.062 409.878 244.961 405.984 241.356C401.38 237.112 394.148 238.542 391.059 244.347C388.561 248.945 388.833 253.804 389.757 258.734C389.899 259.503 389.899 260.306 390.029 261.843L385.709 258.001C385.383 260.956 384.881 263.889 384.206 266.785C381.389 276.361 371.683 280.499 363.812 275.628C357.657 271.821 355.349 264.988 358.32 259.396C358.979 258.015 360.073 256.889 361.436 256.19C362.798 255.492 364.353 255.26 365.86 255.53C367.309 255.778 368.663 256.416 369.775 257.377C370.887 258.337 371.714 259.584 372.168 260.98C372.214 261.803 372.139 262.627 371.943 263.427H371.304C371.099 263.004 370.917 262.57 370.76 262.127C369.766 258.699 368.002 257.126 365.067 257.103C363.589 257.151 362.169 257.687 361.028 258.625C359.887 259.564 359.089 260.853 358.758 262.293C357.669 266.347 359.823 271.147 363.99 273.76C372.902 279.352 381.886 273.512 383.708 263.877C385.235 255.767 384.052 255.27 377.412 252.575C369.126 249.217 361.113 249.868 354.189 256.121C352.323 257.757 350.899 259.837 350.051 262.168C349.203 264.499 348.957 267.006 349.337 269.457C350.01 276.016 352.692 282.209 357.018 287.19V278.713C357.786 278.989 358.523 279.342 359.22 279.766C366.7 285.547 374.536 285.286 382.489 280.948C386.348 278.867 385.732 278.583 387.685 282.709C388.609 284.636 389.638 286.516 390.609 288.384C383.353 295.099 374.997 296.659 365.138 294.212C369.103 298.397 372.109 302.488 372.867 307.725C373.228 311.045 373.347 314.388 373.222 317.726C373.222 318.199 372.334 319.05 371.801 319.098C368.807 319.381 365.789 319.476 362.486 319.641C362.617 308.505 359.421 299.544 347.478 295.465L354.26 291.268L354.166 290.476C353.016 290.12 351.819 289.94 350.615 289.944C345.881 290.677 341.146 291.127 336.672 292.569C329.488 294.815 325.475 302.192 326.233 309.723C326.506 313.259 327.613 316.681 329.465 319.708C331.316 322.734 333.859 325.28 336.885 327.137C338.178 328.149 339.771 328.704 341.414 328.714C343.057 328.725 344.657 328.191 345.963 327.196C351.941 323.235 354.982 316.189 352.994 310.266C350.473 302.783 339.773 299.402 334.518 304.426C331.938 306.874 331.358 310.054 332.991 312.867C334.482 315.456 336.199 315.941 340.176 314.972C340.592 314.924 341.013 314.924 341.43 314.972L341.738 315.622C340.93 316.176 340.055 316.625 339.134 316.958C337.642 317.262 336.092 317.089 334.703 316.466C333.314 315.842 332.156 314.798 331.393 313.482C330.641 312.018 330.343 310.363 330.537 308.729C330.731 307.095 331.408 305.556 332.482 304.308C337.122 299.118 345.312 299.166 351.112 304.415C356.912 309.664 356.77 318.412 350.781 324.512C348.601 326.494 346.296 328.334 343.88 330.021L349.313 331.806C347.455 332.705 346.176 333.438 344.815 333.97C340.424 335.696 336.53 338.131 334.281 342.363C333.397 343.912 332.986 345.686 333.1 347.466C333.213 349.245 333.846 350.952 334.92 352.377C335.774 353.742 337.025 354.813 338.506 355.447C339.987 356.081 341.627 356.247 343.206 355.923C344.446 355.711 345.609 355.176 346.577 354.373C347.545 353.57 348.284 352.527 348.721 351.348C349.005 350.34 348.975 349.269 348.634 348.279C348.294 347.288 347.66 346.425 346.816 345.804C345.147 344.468 344.247 344.728 343.608 346.773C343.548 347.12 343.412 347.449 343.209 347.737C343.005 348.024 342.74 348.263 342.433 348.435C342.126 348.607 341.784 348.709 341.432 348.732C341.08 348.755 340.728 348.7 340.4 348.57C339.761 348.369 338.838 347.045 339.016 346.643C339.41 345.539 340.193 344.615 341.217 344.042C342.69 343.524 344.274 343.402 345.81 343.687C350.153 344.562 351.728 350.178 348.804 354.197C345.017 359.47 337.347 358.926 333.524 353.145C331.859 350.624 331.223 347.562 331.747 344.588C332.271 341.613 333.915 338.952 336.341 337.15C338.826 335.211 341.62 333.662 344.247 331.96C342.069 330.482 339.513 330.991 336.968 331.416C330.59 332.368 324.072 331.418 318.232 328.685C328.079 339.739 330.293 351.975 324.647 366.031C319.005 362.354 314.72 356.937 312.444 350.603C309.957 344.319 309.657 337.383 311.592 330.908L300.608 341.087C303.068 343.794 305.375 346.636 307.52 349.598C313.509 358.772 313.923 368.608 310.444 378.834C309.544 381.483 307.615 381.435 305.638 380.962C298.318 379.382 291.688 375.525 286.701 369.944C283.059 365.664 280.61 360.502 279.599 354.977C279.481 354.481 279.303 354.008 279.161 353.523L264.851 358.016C271.212 359.807 276.861 363.524 281.019 368.656C285.41 373.834 288.511 379.52 288.476 386.542C277.575 387.725 265.928 378.137 259.395 362.626C258.507 368.384 257.217 373.798 253.903 378.468C253.098 379.65 252.116 380.608 251.394 381.778C250.411 383.398 249.595 385.112 248.707 386.791L249.287 387.204C251.382 385.963 253.418 384.592 255.596 383.516C263.147 379.768 270.402 382.133 273.35 389.202C274.888 392.879 273.941 397.679 271.231 399.96C269.857 401.088 268.172 401.77 266.401 401.918C264.629 402.066 262.854 401.672 261.312 400.788C260.563 400.402 259.914 399.847 259.417 399.168C258.919 398.489 258.585 397.703 258.443 396.874C258.301 396.044 258.353 395.193 258.597 394.387C258.84 393.58 259.267 392.842 259.845 392.229C260.605 391.133 261.59 390.211 262.733 389.522C263.205 389.432 263.692 389.461 264.151 389.605C264.609 389.75 265.025 390.005 265.36 390.349C265.543 390.75 265.62 391.191 265.582 391.63C265.545 392.069 265.395 392.491 265.147 392.855C264.364 393.422 263.427 393.735 262.46 393.754C262.022 393.825 261.525 393.376 261.052 393.151C259.134 394.865 259.643 396.698 260.945 398.424C261.826 399.379 262.98 400.042 264.25 400.321C265.52 400.6 266.846 400.482 268.047 399.984C269.419 399.427 270.583 398.455 271.374 397.204C272.166 395.953 272.546 394.486 272.462 393.009C272.332 386.389 265.999 381.861 259.217 384.036C256.022 385.053 253.145 387.133 250.175 388.765C249.118 389.539 247.969 390.179 246.754 390.668C247.062 388.919 247.381 387.122 247.748 385.124C243.594 387.654 239.463 389.427 234.729 389.332C231.805 389.373 228.954 388.429 226.633 386.653C224.312 384.878 222.657 382.373 221.934 379.544C221.12 376.742 221.216 373.755 222.206 371.011C223.197 368.267 225.033 365.907 227.45 364.27C228.842 363.288 230.495 362.744 232.199 362.706C233.902 362.668 235.578 363.139 237.013 364.057C238.299 364.814 239.318 365.95 239.93 367.309C240.543 368.668 240.719 370.184 240.434 371.647C240.381 372.878 239.85 374.04 238.952 374.886C238.055 375.732 236.862 376.194 235.628 376.174C235.956 375.657 236.32 375.163 236.717 374.697C239.155 372.108 239.593 369.968 238.126 367.544C237.337 366.236 236.124 365.236 234.688 364.711C233.252 364.187 231.679 364.168 230.231 364.66C228.84 365.153 227.574 365.944 226.521 366.977C225.468 368.011 224.654 369.261 224.135 370.642C223.329 372.479 222.986 374.487 223.137 376.488C223.288 378.489 223.929 380.422 225.003 382.118C226.077 383.814 227.551 385.221 229.296 386.215C231.042 387.209 233.005 387.76 235.013 387.819C238.833 387.975 242.609 386.956 245.831 384.899C246.71 384.427 247.442 383.723 247.949 382.865C248.456 382.006 248.718 381.025 248.707 380.028C248.707 371.647 245.618 363.478 237.202 358.808C235.274 357.71 233.128 357.048 230.916 356.866C228.703 356.684 226.478 356.988 224.396 357.756C216.264 360.617 211.566 366.941 208.228 374.448L208.689 375.158L215.412 371.67C215.412 372.852 215.495 373.822 215.412 374.803C214.596 383.48 218.738 389.533 225.65 394.073C229.391 396.52 229.438 396.437 226.834 400.221C226.491 400.717 226.171 401.237 225.863 401.757C223.674 405.505 224.467 405.86 219.851 403.578C212.974 400.185 208.299 394.936 206.488 387.358C206.299 386.863 206.069 386.385 205.801 385.928C203.967 394.901 198.617 400.622 190.77 404.287C188.935 405.138 187.692 405.079 186.663 402.975C185.404 400.748 184.021 398.593 182.52 396.52C191.894 391.035 198.83 383.965 196.001 371.41L203.103 375.17L203.896 374.472C202.606 372.238 201.469 369.885 200.002 367.769C196.842 363.194 192.9 359.434 187.491 357.673C178.957 354.918 169.181 359.718 165.606 368.833C164.389 372.491 163.668 376.297 163.464 380.147C163.483 380.895 163.652 381.632 163.961 382.315C164.27 382.997 164.713 383.61 165.263 384.119C167.867 386.347 171.132 387.656 174.555 387.844C177.979 388.032 181.368 387.088 184.201 385.159C185.951 383.922 187.31 382.211 188.117 380.227C188.925 378.243 189.147 376.07 188.758 373.964C188.142 369.909 186.284 366.398 182.094 364.766C180.637 364.165 179.016 364.084 177.506 364.539C175.997 364.993 174.69 365.955 173.809 367.261C172.175 369.885 172.625 372.273 175.241 374.862C175.596 375.217 175.88 375.631 176.271 376.104C173.158 376.186 170.85 373.03 171.371 369.637C172.341 363.182 179.833 360.487 185.183 364.66C187.641 366.678 189.361 369.451 190.076 372.547C190.791 375.643 190.461 378.889 189.136 381.778C187.822 384.588 185.561 386.846 182.749 388.16C179.936 389.474 176.751 389.759 173.75 388.966C170.542 388.162 167.453 386.838 164.352 385.762L165.239 391.33C163.795 390.243 162.931 389.64 162.115 388.966C157.984 385.62 153.569 383.055 147.912 383.575C146.307 383.694 144.763 384.241 143.441 385.158C142.12 386.074 141.068 387.328 140.396 388.789C139.616 390.148 139.239 391.701 139.308 393.267C139.377 394.832 139.89 396.346 140.786 397.631C141.305 398.348 141.962 398.954 142.719 399.413C143.476 399.872 144.317 400.175 145.193 400.304C146.069 400.433 146.962 400.386 147.819 400.164C148.676 399.943 149.481 399.552 150.184 399.015C152.22 397.241 152.421 395.681 150.965 393.175C150.066 393.399 149.012 394.026 148.326 393.742C147.356 393.275 146.593 392.467 146.184 391.472C145.994 391.035 146.917 389.545 147.367 389.545C148.585 389.427 149.805 389.755 150.8 390.467C152.693 392.453 154.646 394.711 153.084 397.797C152.555 398.992 151.693 400.01 150.603 400.73C149.512 401.451 148.237 401.844 146.929 401.864C145.326 402.044 143.705 401.736 142.28 400.981C140.854 400.226 139.69 399.058 138.94 397.631C135.744 391.839 139.674 383.729 146.314 382.038C151.522 380.714 155.782 383.008 159.937 385.467C160.825 385.987 161.665 386.59 162.517 387.157L163.204 386.732C162.28 384.994 161.653 383.019 160.399 381.589C155.664 376.234 153.534 369.932 152.61 362.366C147.604 376.576 138.455 385.147 123.458 386.944ZM262.65 328.709C265.822 323.306 266.011 317.667 265.443 311.425C268.804 313.529 270.177 311.709 270.769 309.463C274.498 311.023 277.871 312.572 281.422 313.896C283.02 314.499 285.399 314.132 286.286 315.173C287.174 316.213 286.286 318.353 286.215 320.031C286.215 320.197 286.121 320.445 286.215 320.54C286.712 321.06 287.28 322.018 287.766 321.994C292.086 321.722 296.276 320.906 300.028 318.069C299.085 316.695 298.074 315.37 296.998 314.097C295.873 312.915 296.146 312.347 297.306 311.236C299.867 308.692 302.286 306.009 304.549 303.197C305.38 302.009 306.097 300.747 306.692 299.426C308.242 300.501 309.556 301.483 310.953 302.357C312.775 303.54 314.349 303.457 315.462 301.282C316.291 299.674 317.214 298.113 318.113 296.553C322.753 288.549 329.227 282.981 338.542 281.184C339.418 281.007 340.247 280.676 341.371 280.333C335.855 267.222 340.187 256.121 347.987 245.552L341.028 241.427C343.04 236.107 345.005 230.94 347.052 225.514L353.574 226.117C353.532 221.171 352.096 216.336 349.431 212.167L343.762 216.352C340.505 211.449 335.796 207.683 330.293 205.582C333.429 203.478 332.541 201.468 330.577 199.328C335.998 197.276 340.621 193.548 343.774 188.688L349.479 193.003C352.09 188.761 353.479 183.88 353.491 178.9L347.017 179.585L341.099 163.59L348.094 159.488C340.081 148.848 335.974 137.747 341.407 124.684C340.223 124.353 339.335 124.081 338.448 123.868C333.5 122.686 328.612 121.102 325.239 117.212C321.848 113.094 318.709 108.775 315.841 104.279C314.03 101.583 313.284 101.264 310.479 103.097C309.213 103.912 307.958 104.752 306.514 105.709C304.419 100.023 300.596 96.0271 295.921 92.6105L300.466 86.3566C297.204 85.1861 293.886 84.1799 290.524 83.342C285.6 82.3608 285.789 82.6327 286.724 87.8226C287.056 89.6077 286.487 90.187 284.736 90.5889C281.953 91.1029 279.217 91.8463 276.557 92.8115C274.63 93.703 272.778 94.7467 271.018 95.9325C269.266 92.6932 269.266 92.6932 265.419 93.0479C266.319 87.3316 265.431 81.4771 262.875 76.2842L269.455 73.577C267.336 69.76 264.363 66.4831 260.768 64.0011C259.584 63.1617 258.862 63.5282 258.401 64.7459C257.738 66.3892 257.075 68.0442 256.353 69.8176C250.849 67.4531 245.393 66.0936 239.51 67.1458V58.9649C232.977 58.2792 226.822 58.0191 220.81 56.9197C214.536 55.7375 210.157 51.2451 205.837 46.2798C197.362 58.4329 184.958 58.894 172.152 58.3147V67.2522C166.234 66.07 160.872 67.5477 155.581 69.7939L152.658 63.1263C148.365 65.6695 144.811 69.2882 142.349 73.6243C144.026 74.1859 145.673 74.833 147.284 75.5631C147.888 75.8823 148.693 77.0999 148.468 77.4782C146.101 82.4435 145.757 87.7043 146.314 93.5917C142.881 91.5465 141.686 93.5917 141.141 95.4005L125.033 89.3594L125.956 83.2356C120.915 82.7585 115.872 84.1144 111.753 87.0541L116.085 92.5396C111.24 95.752 107.484 100.356 105.314 105.745C103.87 104.728 102.627 103.782 101.337 102.931C98.9697 101.371 97.7151 101.643 96.2474 104.113C95.3124 105.662 94.4839 107.282 93.5606 108.842C89.0866 116.467 82.9082 121.846 74.0431 123.821C70.6225 124.566 70.6461 124.636 71.6759 128.029C72.967 132.071 73.3511 136.348 72.8008 140.555C72.2506 144.762 70.7794 148.796 68.492 152.371C67.048 154.735 65.675 157.1 64.1008 159.748L71.6404 164.134C68.1109 168.601 66.0445 174.046 65.7224 179.727L58.6208 178.994C58.3198 183.953 59.6544 188.874 62.4201 193.003L67.4386 189.209L80.6949 200.049C78.3277 201.645 79.6652 203.691 81.2039 205.7C76.4377 207.475 72.3145 210.638 69.3679 214.78C68.2789 216.387 67.2729 216.139 66.0301 214.922C64.8601 213.88 63.6353 212.901 62.3609 211.99C59.6776 216.186 58.3588 221.108 58.5853 226.082L65.6869 225.384C66.0243 231.077 68.0884 236.532 71.6049 241.025L64.0535 245.375C65.4856 247.74 66.6574 249.868 67.9712 251.877C70.5316 255.694 72.1691 260.052 72.7545 264.609C73.3399 269.165 72.8572 273.796 71.3445 278.134C70.7645 279.99 71.0486 280.759 73.0844 281.137C76.6859 281.716 80.1321 283.02 83.2144 284.968C86.2967 286.917 88.9508 289.471 91.0159 292.474C92.9215 295.241 94.5667 298.22 96.2829 301.081C97.6677 303.339 99.0052 303.67 101.219 302.263C102.58 301.376 103.87 300.383 105.42 299.284C107.35 305.195 111.551 309.096 116.002 312.655C114.463 314.641 113.149 316.308 111.8 318.057C115.741 321.001 120.014 321.663 124.299 322.089C124.737 322.089 125.731 320.906 125.719 320.292C125.542 318.484 125.241 316.691 124.82 314.924C130.642 314.56 136.218 312.45 140.822 308.871C141.84 311.46 142.976 313.6 146.231 311.65C145.817 317.395 146.089 322.703 148.598 327.68C148.764 328.023 148.03 329.17 147.414 329.454C145.84 330.246 144.136 330.778 141.615 331.747C144.976 335.093 147.805 337.966 150.693 340.756C152.113 342.115 153.131 341.548 153.747 339.845C154.267 338.415 154.836 336.996 155.463 335.388C160.896 337.292 166.186 339.254 172.223 337.883V346.158C178.626 346.785 184.769 347.009 190.77 348.109C197.114 349.291 201.73 353.63 206.157 358.808C214.572 346.797 226.787 346.111 239.676 346.832V338.675C243.748 338.143 247.654 337.741 251.512 337.103C253.098 336.831 255.063 335.235 256.022 335.743C256.98 336.251 257.584 338.568 258.318 340.082C258.389 340.235 258.46 340.472 258.59 340.519C259.241 340.779 260.176 341.406 260.555 341.169C264.367 338.795 267.463 335.432 269.515 331.44L262.65 328.709ZM239.167 348.428C237.569 348.274 236.196 348.038 234.823 348.014C225.745 347.778 217.271 349.445 210.441 356.03C209.021 357.401 207.683 358.571 208.559 361.066C208.938 362.118 207.766 363.868 206.961 365.074C206.561 365.218 206.132 365.268 205.709 365.219C205.286 365.17 204.88 365.023 204.523 364.79C203.801 363.537 202.771 361.645 203.245 360.676C204.133 358.855 203.34 357.945 202.369 356.893C201.495 355.937 200.537 355.062 199.505 354.28C191.504 348.369 182.461 347.187 172.672 348.369C173.072 349.698 173.555 351.001 174.116 352.27C175.087 354.174 174.791 355.037 172.578 355.734C169.892 356.469 167.451 357.904 165.504 359.892C163.557 361.88 162.175 364.35 161.499 367.048C161.167 367.961 160.772 368.85 160.316 369.708C156.694 364.92 157.948 359.494 157.025 354.587C156.076 354.906 155.28 355.568 154.796 356.443C154.312 357.319 154.174 358.344 154.41 359.316C154.635 362.578 155.03 365.825 155.593 369.046C156.596 373.458 158.733 377.533 161.795 380.868C161.523 372.486 163.878 365.653 170.08 360.51C174.921 356.479 180.39 354.197 186.828 355.569C191.918 356.644 195.682 359.919 198.735 363.844C201.54 367.391 203.789 371.469 206.31 375.335C208.481 369.215 212.283 363.803 217.306 359.683C219.07 358.075 221.151 356.853 223.416 356.096C225.68 355.339 228.078 355.062 230.456 355.285C240.28 356.207 247.677 364.53 249.322 373.349C249.749 375.713 250.021 378.007 250.388 380.501C255.69 374.779 258.034 364.908 257.489 357.898C257.406 356.656 255.986 355.533 255.122 354.351L254.483 354.788C254.317 359.813 254.72 364.944 251.228 370.323C249.393 361.799 244.635 356.81 236.788 354.954L239.167 348.428ZM55.4132 115.533C56.8572 117.52 58.0053 118.891 58.964 120.416C62.7752 126.764 65.3555 133.598 64.0772 141.057C62.3136 151.283 49.3413 157.123 41.5888 155.835C37.4462 155.137 33.4574 153.541 29.4332 152.288C29.5042 151.934 29.4332 152.123 29.4332 152.288C29.623 152.855 29.8524 153.408 30.1197 153.943C33.2603 159.974 37.9759 165.043 43.7666 168.615C44.6398 169.305 45.7179 169.687 46.8318 169.7C47.9457 169.713 49.0323 169.356 49.9213 168.685C45.3644 165.919 40.8786 163.306 38.2747 158.767C42.0622 158.767 45.7077 159.417 48.9271 158.589C52.1465 157.762 55.3185 155.468 58.7983 153.66L62.8462 158.294C68.7642 149.593 73.4986 141.14 70.729 130.524C70.149 128.289 70.1017 125.949 66.835 125.499C64.9885 125.251 63.9351 122.426 64.6808 121.196C65.604 119.659 67.6753 119.328 69.5217 120.44C69.8768 120.652 70.1372 121.09 70.5159 121.232C71.5338 121.61 72.6819 122.331 73.5933 122.118C79.4011 120.92 84.6584 117.861 88.5659 113.405C91.7269 109.594 94.2673 105.309 96.0935 100.709C94.1406 100.413 92.6256 100.117 91.0988 99.9638C89.5719 99.8101 89.2168 99.3609 89.6311 97.8004C90.4524 94.9672 90.4842 91.9638 89.7229 89.114C88.9616 86.2641 87.4362 83.6757 85.311 81.6278C84.7391 80.9063 84.2096 80.1524 83.7249 79.3698C89.6429 79.1452 94.0223 81.9352 98.5673 84.3232C98.4608 81.1194 98.4252 80.7057 96.0344 79.5944C92.8948 77.9918 89.6192 76.6705 86.246 75.6458C80.328 74.0499 77.0376 74.1799 73.8655 75.4449C79.3219 78.4713 83.5 82.609 85.7015 88.4491C89.6074 98.758 86.7431 109.729 76.2327 113.796C69.6463 116.538 62.364 117.146 55.4132 115.533V115.533ZM204.026 46.067C203.825 45.6769 203.73 45.4405 203.6 45.2277C202.333 43.3361 203.079 41.6811 204.488 40.3925C204.87 40.1233 205.314 39.9533 205.779 39.8976C206.244 39.8418 206.715 39.9022 207.151 40.0733C207.933 40.5629 208.513 41.3171 208.784 42.1983C209.056 43.0794 209.001 44.0288 208.63 44.873C208.63 44.9439 208.524 45.0267 208.524 45.0976C208.63 45.8542 208.524 46.8473 208.914 47.3084C210.285 48.8694 211.825 50.2731 213.507 51.4934C221.259 56.7542 229.876 57.8536 239.203 56.6005C238.776 55.149 238.274 53.7206 237.699 52.3209C236.918 50.6776 237.167 49.9565 239.049 49.3772C241.817 48.6302 244.334 47.1561 246.339 45.1082C248.343 43.0603 249.762 40.5135 250.447 37.7325C250.8 36.8091 251.219 35.9122 251.701 35.0489C254.85 40.1678 254.447 45.3814 254.897 50.5712C256.081 49.6373 257.489 48.6324 257.537 47.5684C258.121 39.1968 255.592 30.9041 250.435 24.279C250.31 25.6743 250.097 27.0603 249.796 28.4285C248.683 32.0934 247.902 35.9592 246.174 39.3285C242.931 45.6769 234.705 51.1505 225.733 49.4718C219.815 48.2896 215.708 44.4947 212.252 40.0141C210.001 36.821 207.923 33.5101 206.026 30.0954C203.884 33.4411 201.789 37.3069 199.138 40.7353C187.491 55.8675 170.731 50.4412 164.47 36.9641C162.718 33.181 162.186 28.8305 161.121 24.8346C160.816 25.1769 160.532 25.536 160.268 25.9104C156.232 31.7918 154.161 38.7972 154.35 45.9252C154.35 48.0768 154.942 49.4718 157.167 50.3939C157.185 47.8418 157.339 45.2925 157.629 42.7569C158.043 40.3097 157.984 37.5788 160.304 35.6636C160.635 36.1247 161.002 36.4321 161.097 36.8458C162.825 43.5135 166.885 47.8522 173.584 49.7319C174.034 49.8619 174.519 51.2215 174.365 51.8599C173.919 53.4685 173.374 55.0478 172.732 56.5887C184.994 57.9837 195.918 56.1867 204.026 46.067ZM95.845 304.355C95.7956 304.006 95.7164 303.662 95.6083 303.327C95.0638 302.145 94.4957 300.962 93.9157 299.851C89.7139 291.41 83.5829 285.286 74.0786 283.04C73.3829 282.755 72.6159 282.692 71.8827 282.859C71.1496 283.026 70.4861 283.416 69.9833 283.974C69.1311 284.814 67.2137 284.814 65.7934 284.731C65.2608 284.731 64.231 283.04 64.4204 282.697C65.1897 281.362 66.255 279.399 67.4031 279.257C69.7111 278.962 70.0307 277.472 70.3976 275.971C72.9423 265.65 69.9952 256.559 63.8996 248.236C62.9054 246.865 62.0414 246.983 61.1182 248.402C60.3488 249.584 59.3783 250.671 58.3485 252.007C52.5371 246.226 45.9681 244.193 38.1208 246.699C40.8668 241.746 45.2224 239.05 49.5426 235.894C47.8145 235.634 45.9918 235.35 44.5951 236.036C39.7596 238.607 35.6272 242.321 32.5579 246.853C31.2926 248.792 30.1311 250.797 29.0781 252.859C29.66 252.993 30.2714 252.895 30.7825 252.587C40.0856 247.243 49.0691 247.858 57.6384 254.194C59.7307 255.607 61.432 257.524 62.5845 259.769C63.737 262.013 64.3033 264.512 64.231 267.033C64.167 274.425 61.5545 281.568 56.8335 287.261C56.5428 287.654 56.2892 288.074 56.076 288.514C60.8528 288.63 65.6208 288.985 70.3621 289.578C75.783 290.5 80.8488 292.51 84.151 297.404C89.2879 305.029 87.9977 316.981 81.121 323.885C78.9313 326.096 76.3866 327.952 73.8774 330.092C81.9614 331.274 89.2642 329.241 96.1527 325.505C98.1293 324.441 98.6146 322.869 98.6146 320.682C93.8802 323.046 89.4417 325.812 83.8433 325.872C84.0208 325.15 83.9972 324.831 84.151 324.689C89.2879 319.641 91.513 313.754 89.5009 306.566C89.418 306.247 90.4004 305.313 91.0159 305.148C92.6109 304.801 94.2228 304.537 95.845 304.355ZM374.109 246.971C372.736 246.699 371.979 246.593 371.257 246.392C368.836 245.703 366.288 245.581 363.812 246.036C361.337 246.491 358.999 247.511 356.983 249.016C353.432 251.475 353.432 251.499 350.579 248.26C349.834 247.409 349.112 246.64 348.118 248C341.88 256.547 338.566 265.733 341.537 276.373C341.939 277.839 342.377 278.867 344.306 279.198C345.49 279.399 346.52 281.113 347.183 282.378C347.431 282.863 346.496 284.648 345.999 284.743C344.602 284.861 342.614 284.884 341.833 284.033C341.355 283.386 340.659 282.934 339.872 282.762C339.086 282.59 338.264 282.71 337.56 283.099C335.962 283.726 334.258 284.081 332.683 284.778C324.031 288.585 319.463 295.879 315.841 304.249C317.182 304.653 318.563 304.906 319.96 305.006C322.647 304.864 322.493 306.365 322.102 308.15C321.529 310.554 321.52 313.058 322.076 315.466C322.633 317.873 323.739 320.12 325.31 322.029C326.138 323.082 326.955 324.134 328.186 325.73C322.173 325.836 317.794 323.212 313.32 320.658C313.509 324.205 313.521 324.205 316.172 325.73C317.43 326.477 318.743 327.125 320.102 327.669C325.878 329.737 331.713 331.357 338.341 329.962C337.24 329.205 336.495 328.65 335.702 328.177C331.221 325.452 327.806 321.281 326.02 316.355C322.161 306.495 325.369 296.186 333.796 292.143C340.264 288.912 347.6 287.843 354.722 289.093C355.292 289.161 355.865 289.193 356.438 289.188C355.823 288.443 355.503 288.065 355.195 287.674C350.172 281.756 347.457 274.225 347.549 266.466C347.774 254.49 362.001 247.881 370.393 249.182C374.536 249.832 378.524 251.546 382.608 252.728C379.337 245.293 373.579 239.224 366.321 235.563C365.268 234.995 363.564 235.646 362.155 235.74C366.534 239.109 371.032 241.698 374.109 246.971ZM355.918 116.479C351.183 116.172 346.354 116.207 341.655 115.463C336.684 114.67 331.961 112.874 328.576 108.748C322.919 101.832 323.12 90.4352 329.381 82.8218C331.748 79.8781 334.92 77.5374 337.808 74.8538C330.102 73.938 322.31 75.6011 315.651 79.5826C314.824 79.9878 314.156 80.6593 313.757 81.4892C313.358 82.3191 313.25 83.259 313.45 84.1577C318.066 81.8761 322.504 79.2397 328.399 79.0388C327.902 79.8258 327.361 80.5837 326.777 81.3086C322.445 85.9192 320.729 91.2509 322.244 97.493C322.611 99.018 322.362 99.952 320.421 99.9402C318.897 100.054 317.384 100.295 315.9 100.661C320.161 110.805 326.079 118.879 337.205 121.764C338.921 122.213 340.472 122.946 341.939 120.842C342.495 120.038 344.567 120.049 345.904 120.156C346.472 120.156 347.538 121.705 347.36 122.107C346.676 123.424 345.821 124.644 344.815 125.736C344.614 125.972 343.939 125.736 343.632 125.949C343.324 126.161 342.33 126.634 342.223 127.131C341.472 129.845 340.926 132.611 340.59 135.406C340.022 142.653 343.146 148.824 346.804 154.771C349.171 158.566 349.171 158.589 351.87 154.936C353.053 153.364 353.823 152.998 355.527 154.534C360.025 158.613 365.303 160.209 371.34 158.507C372.097 158.294 372.89 158.223 374.133 158.01C371.233 163.354 366.416 165.742 362.179 168.733C363.09 169.401 364.207 169.727 365.335 169.653C366.463 169.58 367.529 169.111 368.345 168.331C372.16 165.111 375.81 161.702 379.282 158.117C380.903 156.402 381.744 153.955 382.951 151.839C373.174 157.313 363.942 157.549 354.888 151.106C351.017 148.351 348.26 144.781 347.786 139.851C347.1 131.99 349.739 125.121 354.107 118.761C354.769 117.91 355.527 116.999 355.918 116.479ZM112.806 62.4642C115.119 56.7966 115.768 50.5881 114.676 44.5656C119.872 48.3251 124.796 51.1624 131.246 51.718C129.743 42.3667 124.796 35.7227 117.753 30.4383C114.16 27.5242 109.744 25.8048 105.124 25.5203L104.84 27.5064C103.242 26.3242 102.793 27.3054 102.367 28.6886C100.094 35.6563 100.401 43.2073 103.231 49.9683C105.22 54.9288 108.532 59.2504 112.806 62.4642V62.4642ZM307.118 25.5912C294.785 25.7331 281.007 40.9599 281.209 51.5998C287.304 51.2687 292.181 48.0531 297.329 44.6129C296.235 50.5777 296.871 56.7308 299.164 62.346C308.242 55.7966 313.024 42.7569 310.444 31.9042C309.994 30.0245 310.574 27.069 307.047 27.0335L307.118 25.5912ZM296.939 360.156C292.062 356.751 287.091 353.618 280.818 353.299C282.238 367.071 297.223 379.875 307.106 379.307L306.976 377.368L308.645 378.232C314.184 366.941 309.946 350.154 298.773 342.493C298.051 345.354 297.479 348.251 297.057 351.171C296.702 354.067 296.939 357.082 296.939 360.215V360.156ZM112.699 342.422C104.225 349.646 100.118 358.489 100.863 369.318C101.275 372.371 101.896 375.393 102.722 378.362L104.84 377.581L104.971 379.39C120.783 377.215 130.88 362.839 130.738 353.169C124.82 353.878 119.742 356.609 114.783 360.262C115.019 354.067 115.422 348.274 112.699 342.482V342.422ZM2.11569 203.49C11.2176 215.075 27.1725 218.48 38.0024 212.664C34.0611 207.935 28.9361 205.109 23.1956 202.39C29.0025 200.415 34.0988 196.777 37.8486 191.928C37.2516 191.621 36.6393 191.344 36.014 191.1C24.971 187.672 15.0288 189.752 6.21094 197.177C3.34663 199.541 3.39397 199.624 3.61886 202.567L2.11569 203.49ZM409.83 201.409C399.947 189.126 383.673 186.962 374.157 192.164C377.802 197.129 382.88 200.014 388.668 202.52C382.844 205.003 377.826 208.041 373.802 212.829C376.642 214.756 379.72 214.78 382.809 215.193C392.858 216.376 400.93 212.167 408.268 205.949C409.606 204.766 409.961 203.584 408.197 202.485L409.83 201.409ZM277.338 61.4357H278.522C279.374 65.207 280.226 68.9782 281.055 72.6076L292.796 69.1437L285.765 80.5875L301.069 84.6779C302.797 80.8594 301.803 76.6507 300.797 71.8864C306.147 74.7828 308.573 79.4171 311.509 83.7085C312.55 81.3441 312.692 79.1097 311.083 77.2655C308.132 73.8922 305.094 70.5978 301.969 67.3822C300.93 66.3258 299.615 65.5801 298.175 65.2292C296.734 64.8783 295.224 64.9361 293.814 65.3961C290.488 66.2237 287.15 66.9803 283.978 67.7605C282.972 64.0386 281.747 60.3792 280.309 56.8015C279.413 54.7659 277.788 53.1383 275.752 52.2382C270.965 50.8822 266.105 49.8007 261.194 48.9989C258.827 48.526 257.537 50.1811 256.211 52.0372C261.585 52.1436 266.745 51.8835 271.764 55.2764C270.713 55.5168 269.684 55.8409 268.686 56.2458C266.319 57.5463 263.952 58.8467 261.585 60.3481C260.661 60.9628 260.496 61.9204 261.585 62.9135C264.851 65.7862 268 68.8245 271.349 71.9101C274.628 69.6521 276.013 65.5734 277.338 61.4357ZM256.14 353.441C259.43 356.597 263.336 356.041 267.289 355.592C278.404 354.304 282.996 347.317 283.398 337.008C286.334 337.871 288.831 338.568 291.293 339.372C293.55 340.19 296.005 340.288 298.32 339.653C300.635 339.017 302.696 337.68 304.218 335.826C306.36 333.461 308.55 331.097 310.455 328.532C312.752 325.458 312.633 325.363 311.284 321.308C308.609 325.86 305.899 330.163 301.093 332.634C302.016 328.26 302.632 324.039 300.916 320.374L285.635 324.512L292.737 335.944L281.007 332.468C280.12 336.157 279.208 339.904 278.297 343.652H277.291C275.918 339.491 274.533 335.377 271.113 333.012C268.343 335.838 265.952 338.687 263.147 341.039C260.342 343.392 260.07 343.995 263.147 346.253C264.358 347.072 265.656 347.753 267.017 348.286C268.331 348.842 269.716 349.22 271.657 349.882C266.591 353.11 261.312 352.779 256.14 353.393V353.441ZM127.802 67.8433C125.66 67.2049 123.281 66.4483 120.878 65.8099C116.7 64.6868 112.593 64.4149 109.291 67.8669C106.593 70.5503 104.037 73.3717 101.633 76.3197C99.1236 79.5235 99.2656 79.6535 100.579 83.5075C108.64 72.6903 108.64 72.6903 111.066 72.714C109.989 76.8517 109.539 80.9894 110.971 84.6424L126.252 80.5875L119.73 69.9476L119.919 69.321L130.868 72.5839C131.783 68.856 132.698 65.1203 133.614 61.3766H134.537C136.04 65.467 137.33 69.652 140.81 72.182C143.088 69.5178 145.502 66.9727 148.042 64.5567C151.687 61.3648 151.723 60.3836 147.355 57.9246C146.209 57.321 145.022 56.7957 143.804 56.3522C142.834 55.9857 141.816 55.7375 140.81 55.4301C145.367 52.0017 150.539 52.1554 155.806 51.9662C153.972 49.5191 151.924 48.4196 149.296 48.9989C144.704 50.0747 140.076 51.1032 135.602 52.5455C134.022 53.1909 132.751 54.4183 132.051 55.9739C130.418 59.8161 129.187 63.8947 127.802 67.8433ZM140.526 333.036C137.153 335.4 136.04 339.68 134.407 343.676H133.507L130.832 332.468L119.896 335.708L119.422 334.821C121.79 331.392 125.175 328.437 125.482 324.264L110.569 320.28V332.941C105.764 330.222 103.385 325.588 100.532 321.486C99.8525 322.592 99.569 323.897 99.7281 325.185C99.8872 326.474 100.479 327.67 101.408 328.579C104.071 331.653 106.793 334.679 109.693 337.516C110.778 338.649 112.163 339.45 113.687 339.826C115.21 340.203 116.809 340.14 118.298 339.644C121.588 338.722 124.95 338.084 127.944 337.386C129.128 340.933 130.087 344.822 131.673 348.416C132.48 350.286 133.957 351.787 135.815 352.625C140.431 354.15 145.284 354.989 150.018 356.101C152.563 356.668 154.125 355.131 155.842 353.133C150.433 352.885 145.189 353.287 140.23 349.823C141.337 349.565 142.425 349.229 143.485 348.818C145.659 347.811 147.763 346.657 149.782 345.366C151.19 344.397 151.356 343.191 149.782 341.82C146.598 339.053 143.733 336.109 140.502 333.036H140.526ZM364.108 193.677L364.51 194.635L356.225 202.437L364.522 210.488L364.037 211.292C359.788 210.512 355.515 209.271 351.81 211.292C353.148 216.34 354.391 221.034 355.811 226.377L366.463 220.017C366.807 225.36 364.002 229.569 361.729 234.203C364.215 233.801 366.12 233.021 366.925 230.893C368.31 227.216 369.493 223.457 370.772 219.733C372.37 215.004 370.701 211.399 367.375 208.088C365.422 206.161 363.753 203.951 362.498 202.497C363.859 200.853 365.647 198.749 367.398 196.586C369.399 194.138 371.73 191.939 371.304 188.227C370.811 182.905 369.154 177.756 366.452 173.142C365.647 171.83 363.765 171.18 362.368 170.222L361.871 170.849C363.93 175.27 366.878 179.42 366.416 185.52C362.865 182.328 359.622 179.609 355.693 178.959C354.379 183.889 353.124 188.582 351.799 193.595C355.551 195.663 359.788 194.422 364.084 193.677H364.108ZM60.1121 211.221C56.3601 209.282 52.0281 210.689 47.7553 211.162L47.3411 210.287L55.7683 202.497L47.3174 194.517L47.7672 193.665C52.0991 194.375 56.4666 195.758 60.1476 193.665C58.8101 188.677 57.5555 183.995 56.2417 179.113C52.3003 179.609 49.1993 182.588 45.4355 185.425C45.1632 179.514 47.8027 175.235 50.3001 170.577C45.2461 171.263 44.5478 175.306 42.8789 178.746C37.8486 189.078 41.8255 196.479 50.4658 202.024C47.4594 205.381 44.5478 208.372 42.003 211.576C41.0799 212.708 40.578 214.124 40.5827 215.584C40.9508 221.013 42.4762 226.301 45.0567 231.094C45.5625 232.039 46.312 232.833 47.2276 233.392C48.1431 233.951 49.1916 234.255 50.2645 234.274C47.8973 229.545 45.0922 225.266 45.4 219.343C49.1993 222.44 52.3595 225.254 56.2536 225.869C57.52 220.986 58.7628 216.293 60.1121 211.221ZM151.119 46.1616C151.119 35.0843 139.354 21.2289 125.435 20.0585C125.885 30.4619 135.507 44.0218 151.119 46.1616ZM286.712 19.8812C269.882 22.2456 260.413 37.6143 260.839 46.2207C267.446 45.2712 273.558 42.1786 278.233 37.4193C282.908 32.66 285.888 26.4977 286.712 19.8812V19.8812ZM43.1393 171.617C37.3412 169.143 30.9127 168.544 24.7565 169.905C18.6003 171.267 13.0255 174.519 8.81486 179.207C7.44189 180.697 8.01001 181.914 9.77358 182.139C13.8386 182.841 17.9579 183.181 22.083 183.156C30.747 182.683 37.4935 178.403 43.1393 171.617ZM323.653 363.513C329.204 353.074 325.676 335.979 314.278 328.047C308.621 338.947 313.213 356.325 323.629 363.513H323.653ZM151.202 358.784C134.975 361.042 125.163 375.985 125.66 385.136C142.574 382.322 151.06 367.544 151.178 358.772L151.202 358.784ZM314.326 77.1354C326.221 67.7605 329.002 52.1081 323.795 41.6692C313.841 48.526 308.514 64.3676 314.326 77.1354ZM404.362 181.063C396.302 169.478 379.507 166.297 369.138 171.605C377.104 183.049 393.059 186.04 404.362 181.063V181.063ZM7.44189 223.871C15.3957 235.09 32.12 238.932 42.8789 233.328C35.8838 223.031 19.2779 218.539 7.44189 223.871ZM88.0451 41.5274C82.1271 55.1937 88.1279 70.3259 97.7151 76.9108C103.562 64.4031 98.011 48.396 88.0451 41.5274ZM286.57 385.065C287.813 375.406 271.953 358.11 261.005 359.411C260.472 368.254 271.018 383.256 286.57 385.065ZM97.6441 328.106C88.6724 334.017 81.8075 349.823 87.9149 363.643C98.6265 356.313 103.231 339.491 97.6441 328.106ZM404.457 223.942C392.076 218.149 375.151 223.54 369.15 233.529C380.525 238.648 396.065 235.22 404.457 223.942ZM60.5145 109.599C58.371 108.788 56.4172 107.545 54.7741 105.949C53.1311 104.353 51.8339 102.436 50.9629 100.318C49.3177 96.1689 48.501 91.7002 47.1398 86.9714C46.6072 86.9714 45.4118 86.9714 44.2282 86.9714C40.1684 87.1369 39.8725 87.4561 39.7778 91.4992C39.7386 96.0565 41.0416 100.525 43.5248 104.348C46.0081 108.172 49.5619 111.182 53.7443 113.004C54.1556 113.153 54.5928 113.219 55.0299 113.197C55.4671 113.174 55.8953 113.064 56.2891 112.874C57.7657 111.873 59.177 110.779 60.5145 109.599V109.599ZM60.5145 295.323C59.2054 294.205 57.8299 293.167 56.3956 292.214C56.0144 292.004 55.5947 291.873 55.1616 291.828C54.7284 291.783 54.2907 291.826 53.8745 291.954C46.0273 294.992 39.9554 303.871 39.8134 312.324C39.7305 317.608 40.0501 317.821 45.3526 318.116C47.6133 318.235 48.0631 317.348 48.2051 315.326C48.7495 306.661 51.9808 299.508 60.479 295.323H60.5145ZM388.585 116.999C385.117 113.776 380.719 111.728 376.018 111.149C371.316 110.569 366.552 111.487 362.404 113.772C357.823 116.29 357.302 117.862 359.468 122.899C368.109 117.508 376.666 118.654 385.247 123.62C386.395 121.326 387.472 119.198 388.585 116.999ZM351.503 295.335C360.853 300.182 363.635 308.434 364.084 318.152C366.215 318.022 368.203 318.01 370.156 317.714C370.512 317.612 370.838 317.425 371.106 317.17C371.374 316.915 371.576 316.599 371.695 316.248C372.444 311.271 371.514 306.186 369.052 301.794C366.59 297.403 362.735 293.953 358.095 291.99C357.175 291.696 356.175 291.776 355.314 292.214C353.965 293.155 352.691 294.198 351.503 295.335V295.335ZM359.208 281.964C357.823 288.597 358.166 289.318 363.611 291.836C371.955 295.702 382.797 294.047 388.467 287.946L385.129 281.421C376.512 286.421 368.073 287.391 359.243 281.964H359.208ZM52.6554 281.964C43.7429 287.639 35.1973 286.303 26.6991 281.444L23.2193 288.266C30.9364 294.437 39.2571 295.796 48.2406 291.812C53.8272 289.365 53.7917 289.211 52.8566 283.3C52.8211 282.957 52.7738 282.603 52.6673 281.917L52.6554 281.964ZM364.937 86.9004C363.528 91.7475 362.629 96.1335 360.983 100.212C360.094 102.355 358.781 104.296 357.124 105.921C355.466 107.546 353.498 108.821 351.337 109.67C352.333 110.298 353.264 111.023 354.118 111.833C355.799 113.748 357.456 113.642 359.587 112.472C368.7 107.459 372.843 99.1126 371.6 87.3497L364.937 86.9004ZM52.7028 123.005C52.975 121.031 53.3064 119.458 53.3893 117.78C53.4116 117.413 53.3591 117.046 53.235 116.701C53.1109 116.355 52.9177 116.039 52.6673 115.77C44.1453 109.114 30.8535 109.28 23.3968 117.035L26.7227 123.62C35.221 118.607 43.7666 117.555 52.7028 123.005ZM188.817 403.318C193.903 401.686 198.255 398.322 201.112 393.813C203.97 389.304 205.152 383.936 204.452 378.645C204.375 378.258 204.217 377.892 203.988 377.571C203.76 377.249 203.466 376.979 203.127 376.777C201.526 376.042 199.886 375.395 198.215 374.839C198.581 385.266 193.374 392.134 184.722 396.922L188.817 403.318ZM213.862 374.815C206.867 377.286 206.867 377.286 207.518 384.072C207.518 384.414 207.518 384.757 207.601 385.1C208.311 393.056 215.318 401.237 223.141 403.211L227.13 396.922C218.537 391.933 213.128 385.289 213.862 374.815ZM188.911 1.62792L184.71 8.09458C193.468 12.8234 198.617 19.7984 198.262 30.1782C199.892 29.6371 201.492 29.0096 203.056 28.2985C203.399 28.105 203.699 27.8422 203.935 27.5267C204.172 27.2112 204.34 26.85 204.428 26.4661C205.683 15.2115 199.73 5.6356 188.911 1.62792ZM223.153 1.62792C212.335 5.37551 206.026 15.4834 207.601 26.4542C207.671 26.7974 207.813 27.122 208.017 27.4071C208.221 27.6922 208.482 27.9314 208.784 28.1093C210.299 28.8541 211.933 29.3743 213.85 30.1191C213.27 19.6447 218.584 12.8589 227.225 7.95272L223.153 1.62792ZM130.69 351.041C129.365 347.281 127.992 343.368 126.69 339.644L114.854 341.843C115.528 346.714 116.215 351.75 116.854 356.384L130.69 351.041ZM47.4239 202.461L39.5648 193.228L28.1667 202.449L39.5648 211.67L47.4239 202.461ZM297.057 63.1381C296.347 58.2438 295.613 53.2312 294.938 48.6442L281.232 53.9996C282.558 57.8418 283.884 61.6958 285.162 65.4316L297.057 63.1381ZM130.726 54.0115L116.889 48.526C116.238 53.314 115.552 58.3502 114.901 63.1145L126.737 65.337C128.051 61.6249 129.4 57.7709 130.726 54.0115ZM297.057 341.843L285.221 339.644C283.895 343.451 282.534 347.364 281.256 351.017L294.95 356.372C295.578 351.762 296.323 346.702 297.057 341.843ZM364.605 202.497L372.275 211.659L383.815 202.497L372.322 193.24L364.605 202.497ZM137.271 83.4011C138.313 80.15 139.33 76.9936 140.206 74.2745L133.72 65.4079C133.294 68.9545 132.904 72.1938 132.537 75.3739L123.423 71.5199C124.82 74.8774 126.015 77.7856 127.234 80.682C127.388 81.0485 127.636 81.5923 127.921 81.6514C130.986 82.278 134.087 82.81 137.271 83.4011ZM51.0812 208.36C54.5018 208.845 57.4608 209.306 60.4317 209.637C61.1583 209.719 61.8883 209.516 62.4675 209.07C64.1594 207.467 65.7152 205.727 67.119 203.868C67.3461 203.436 67.4647 202.955 67.4647 202.467C67.4647 201.979 67.3461 201.498 67.119 201.066C65.7979 199.261 64.3206 197.576 62.7042 196.03C62.0718 195.506 61.2631 195.244 60.4435 195.297C57.4608 195.592 54.5255 196.077 51.2351 196.479L59.0942 202.449L51.0812 208.36ZM132.347 329.678C132.809 332.882 133.27 336.086 133.744 339.443C136.028 336.299 138.017 333.532 140.017 330.766L137.271 321.616C134.194 322.148 130.998 322.691 127.802 323.318C127.506 323.318 127.222 323.897 127.068 324.264C125.885 327.184 124.701 330.104 123.399 333.414L132.347 329.678ZM284.25 81.415L288.701 71.4254L279.445 75.3385C279.031 72.0401 278.64 68.8836 278.261 65.6917C276.084 68.4107 274.143 70.787 272.272 73.2341C272.123 73.462 272.019 73.7171 271.969 73.9849C271.918 74.2527 271.921 74.5279 271.977 74.7946C272.852 77.6438 273.823 80.4574 274.817 83.4484L284.25 81.415ZM288.547 333.497C287.186 330.234 285.99 327.338 284.748 324.453C284.57 324.027 284.239 323.424 283.895 323.342C280.818 322.703 277.717 322.159 274.699 321.604C273.74 324.5 272.817 327.16 272.012 329.879C271.914 330.179 271.877 330.496 271.903 330.811C271.93 331.126 272.019 331.432 272.166 331.712C274.036 334.206 276.024 336.618 278.273 339.443C278.628 335.979 278.972 332.74 279.303 329.548L288.547 333.497ZM360.841 196.361L360.439 195.935C359.255 196.006 357.882 196.479 356.888 196.077C351.443 193.937 348.165 196.645 345.052 200.629C343.868 202.189 343.868 202.993 345.17 204.246C346.472 205.499 347.668 207.119 349.005 208.455C349.55 209.01 350.426 209.708 351.077 209.637C354.107 209.33 357.113 208.774 360.616 208.23L352.923 202.39L360.841 196.361ZM58.029 249.501C62.2663 245.753 62.2663 245.753 60.1713 241.096C59.3901 239.37 53.8509 236.367 52.1583 237.123C48.063 238.762 44.3839 241.29 41.3875 244.524C44.3577 244.032 47.4012 244.225 50.2854 245.087C53.1696 245.95 55.8182 247.46 58.029 249.501V249.501ZM87.619 81.7578C89.4362 84.063 90.7009 86.7531 91.3164 89.6219C91.9319 92.4907 91.8817 95.4622 91.1698 98.3087C92.3156 98.447 93.4478 98.6803 94.5549 99.0062C94.8853 99.1974 95.2546 99.3119 95.6354 99.3411C96.0162 99.3703 96.3987 99.3135 96.7545 99.175C97.1103 99.0365 97.4303 98.8197 97.6909 98.5408C97.9514 98.2619 98.1458 97.9281 98.2595 97.5639C98.9697 96.1453 100.556 94.8449 100.627 93.4735C100.71 87.3733 94.1643 81.5332 87.6426 81.7224L87.619 81.7578ZM91.1698 306.909C92.6966 313.151 91.1698 318.731 87.619 323.945C91.2105 322.525 94.6953 320.85 98.0465 318.932C99.6088 318.045 101.254 311.756 100.579 310.397C98.4016 306.046 96.8866 305.372 92.1048 306.625L91.1698 306.909ZM320.528 306.909C319.64 306.696 318.741 306.436 317.817 306.247C314.456 305.585 310.716 309.356 311.331 312.785C311.911 315.823 312.373 318.908 315.829 320.339C318.587 321.521 321.25 322.857 323.96 324.134C319.545 315.586 319.865 314.262 320.54 306.814L320.528 306.909ZM173.063 353.961C172.164 351.856 171.879 349.315 170.601 348.653C168.79 347.707 165.725 347.246 164.162 348.192C161.274 349.941 158.244 352.306 158.647 356.55C158.943 359.494 159.262 362.461 159.57 365.369L160.233 365.617C161.287 362.782 163.001 360.237 165.234 358.194C167.467 356.151 170.155 354.667 173.075 353.866L173.063 353.961ZM353.657 249.749C359.788 245.02 364.049 243.673 369.967 244.548C368.499 242.183 362.12 237.052 359.705 237.313C357.077 237.608 353.787 238.495 352.213 240.363C349.23 243.968 349.704 244.938 352.71 248.638C352.982 248.851 353.266 249.17 353.669 249.655L353.657 249.749ZM370.582 160.528C367.573 161.102 364.47 160.938 361.539 160.05C358.607 159.163 355.935 157.578 353.752 155.433C352.639 156.615 351.574 157.797 350.591 158.98C350.259 159.346 350.07 159.821 350.059 160.315C350.497 164.311 356.048 168.78 359.871 167.704C363.942 166.463 367.339 163.921 370.594 160.434L370.582 160.528ZM323.83 81.4386C320.104 82.2711 316.628 83.9725 313.687 86.4039C311.84 88.0117 310.739 93.4026 311.686 94.9749C314.444 99.6091 314.799 99.7628 319.972 98.5215C320.193 98.4519 320.404 98.3525 320.599 98.226C320.599 95.3532 320.185 92.4568 320.705 89.7496C321.226 87.0423 322.682 84.2878 323.842 81.3441L323.83 81.4386ZM251.607 365.357L252.471 365.215C252.613 361.22 253.536 357.023 252.613 353.287C252.057 351.053 248.861 348.499 246.411 347.908C242.126 346.868 240.801 348.274 239.309 352.566C239.179 352.956 239.084 353.346 238.93 353.878C241.783 354.693 244.41 356.152 246.608 358.142C248.806 360.133 250.516 362.601 251.607 365.357V365.357ZM251.784 39.0684C249.133 45.3104 245.05 49.3418 238.99 51.0914C240.067 53.9878 240.055 57.2389 244.446 57.0852C247.121 56.9906 252.364 54.7208 252.731 51.9781C253.487 47.6627 253.161 43.2277 251.784 39.0684ZM58.2065 155.338C56.0185 157.414 53.3989 158.981 50.5347 159.93C47.6705 160.878 44.632 161.183 41.6361 160.824C43.8849 162.774 46.2521 164.37 48.5957 166.108C50.9392 167.846 53.5076 167.645 56.3956 166.971C59.9464 166.132 60.5145 163.366 61.5679 160.859C62.5148 158.637 60.0766 157.868 59.2007 156.45C58.8812 156.107 58.5734 155.788 58.2065 155.338ZM172.696 51.5407C170.151 49.9565 167.394 48.7388 165.299 46.8118C163.204 44.8848 161.748 42.1894 159.712 39.4112C159.369 42.5914 158.966 45.3223 158.824 48.0295C158.767 49.3465 158.991 50.6607 159.483 51.884C159.975 53.1072 160.723 54.2115 161.677 55.1227C164.411 58.1492 167.405 57.2507 170.246 56.5769C171.288 56.3286 171.82 53.8814 172.542 52.4273C172.645 52.1431 172.698 51.843 172.696 51.5407V51.5407ZM58.9522 167.858C55.8618 168.542 53.0792 170.214 51.0265 172.621C48.9737 175.027 47.7629 178.037 47.5778 181.193C50.087 180.106 52.7738 179.053 55.354 177.765C56.2442 177.297 56.9309 176.519 57.2833 175.578C57.9698 173.119 58.384 170.577 58.9522 167.858V167.858ZM364.321 181.17C363.883 174.667 358.948 168.721 353.077 168.023C353.621 170.884 354.107 173.733 354.758 176.535C354.864 177.008 355.693 177.386 356.249 177.635C358.983 178.864 361.717 180.035 364.333 181.17H364.321ZM266.781 54.6735C259.821 52.8293 252.814 52.3091 249.559 58.0073C252.057 58.8112 254.507 59.7333 257.04 60.3717C258.023 60.5519 259.038 60.3534 259.88 59.8161C262.295 58.2201 264.555 56.3995 266.792 54.709L266.781 54.6735ZM108.178 75.9532C101.775 81.9943 99.8929 87.5388 102.592 92.374C104.663 90.5534 106.77 88.8274 108.794 86.8768C109.021 86.6513 109.2 86.382 109.32 86.0853C109.44 85.7886 109.498 85.4707 109.492 85.1508C109.125 82.1834 108.628 79.1333 108.166 76.036L108.178 75.9532ZM102.438 312.394C99.455 318.128 102.864 324.075 108.178 328.65C108.628 325.706 109.125 322.597 109.563 319.488C109.572 319.283 109.539 319.079 109.466 318.888C109.392 318.696 109.281 318.522 109.137 318.376C106.923 316.402 104.675 314.428 102.426 312.43L102.438 312.394ZM58.964 237.112C58.3485 234.322 57.7804 231.638 57.1294 228.99C57.0084 228.375 56.6571 227.83 56.147 227.465C53.2354 226.152 50.229 224.97 47.1043 223.658C49.5899 229.474 50.596 236.355 58.964 237.112ZM267.076 350.071C266.302 349.727 265.551 349.332 264.828 348.889C262.46 347.329 260.389 344.728 257.939 344.385C255.489 344.042 252.577 345.863 249.879 346.749C249.76 346.749 249.678 346.927 249.583 347.009C252.637 352.838 261.3 352.093 267.076 350.071V350.071ZM145.225 54.7208C147.592 56.4586 149.829 58.2674 152.208 59.9343C152.815 60.4337 153.589 60.6831 154.374 60.6318C157.049 59.887 159.665 58.9058 162.316 57.9955C159.321 52.38 151.32 52.8884 145.225 54.7208ZM352.864 237.963C355.515 236.473 358.036 235.693 359.587 234.026C362.141 231.106 363.851 227.546 364.534 223.729C361.682 224.911 358.936 226.093 356.249 227.276C355.693 227.524 354.9 227.938 354.793 228.458C354.083 231.283 353.598 234.132 352.864 237.975V237.963ZM145.095 350.272C152.575 352.318 159.89 352.258 162.138 346.879C159.594 346.064 157.084 345.177 154.504 344.515C153.744 344.374 152.958 344.535 152.315 344.964C149.865 346.643 147.497 348.487 145.095 350.284V350.272ZM303.354 328.886C306.049 327.201 308.111 324.675 309.222 321.7C310.333 318.724 310.429 315.466 309.497 312.43L302.218 318.873C302.677 320.485 303.041 322.124 303.306 323.779C303.418 325.483 303.433 327.192 303.354 328.898V328.886ZM309.509 92.5396C311.651 86.9004 308.81 79.3343 303.827 76.4734C303.354 79.4644 301.803 82.9164 302.644 85.6C303.484 88.2836 306.822 90.0806 309.059 92.2795C309.13 92.3386 309.224 92.374 309.509 92.5514V92.5396ZM272.9 92.3977L285.091 88.4137C284.913 86.7467 284.724 84.9971 284.535 83.2711C275.752 83.4602 272.852 85.801 272.9 92.4095V92.3977ZM284.523 322.195C284.748 319.771 284.901 318.034 285.032 316.615L272.639 312.477C272.935 313.979 273.148 315.586 273.598 317.111C273.87 318.022 274.367 319.322 275.054 319.57C278.119 320.611 281.209 321.32 284.523 322.207V322.195ZM113.599 91.8657L110.451 87.8462C101.42 94.8094 101.763 94.4666 105.172 101.465L113.599 91.8657ZM58.6799 227.701C59.2126 236.627 61.5798 239.44 68.0067 239.31L63.8878 227.039L58.6799 227.701ZM110.214 317.419L113.599 313.092L104.923 303.315C104.273 304.892 103.758 306.522 103.385 308.186C103.186 309.367 103.444 310.58 104.107 311.579C105.894 313.636 108.048 315.397 110.214 317.419ZM139.236 92.5868C139.159 91.3893 138.969 90.2018 138.668 89.0402C138.194 87.7398 137.673 85.8719 136.679 85.4936C133.681 84.409 130.617 83.5127 127.506 82.81L126.903 88.3664L139.236 92.5868ZM77.0139 199.565L67.4386 191.065L63.3907 194.174C67.119 201.515 70.9894 202.958 77.0139 199.565ZM146.574 77.0645L141.567 74.8183C140.893 76.9463 140.242 78.8851 139.686 80.8475C138.443 85.1862 139.851 87.7871 144.053 89.3121C144.87 85.3636 145.686 81.3677 146.574 77.0645ZM343.679 240.209C346.437 239.027 349.597 238.696 350.781 236.981C352.461 234.487 352.674 231 353.55 227.796L347.964 227.169C346.614 231.201 345.301 235.22 343.679 240.15V240.209ZM343.679 165.73C344.59 167.87 345.561 169.785 346.236 171.795C346.91 173.804 347.277 175.98 347.762 177.978L353.053 177.339C353.231 168.934 350.627 165.671 343.632 165.694L343.679 165.73ZM143.97 315.291C141.828 317.017 138.798 318.294 138.987 321.308C139.177 324.323 140.573 327.148 141.485 330.234L146.491 327.976C145.651 323.708 144.858 319.712 143.97 315.291ZM348.567 210.807C342.791 202.414 340.448 201.988 335.074 205.558L344.413 213.834L348.567 210.807ZM344.164 190.982C342.519 192.708 341.182 194.292 339.631 195.652C338.081 197.011 336.388 198.099 334.696 199.34C340.614 202.969 344.425 201.527 348.532 194.079L344.164 190.982ZM68.0067 165.718C62.3254 165.647 60.7868 166.818 59.5203 172.362C59.4493 172.693 59.2717 173.001 59.2007 173.343C58.3604 177.067 58.3722 177.067 62.1361 177.599C62.787 177.694 63.4262 177.836 63.8523 177.918C65.2844 173.698 66.6574 169.667 68.0067 165.718ZM127.435 321.616C136.04 321.935 138.573 319.842 139.035 312.548L126.832 316.627C127.009 318.069 127.21 319.736 127.435 321.616ZM67.4978 213.858L77.1086 205.298C76.1972 204.92 75.2267 204.447 74.2206 204.116C72.5162 203.537 70.6698 202.733 69.1193 204.234C67.0362 206.22 65.1069 208.36 62.9764 210.559L67.4978 213.858ZM156.268 337.682C155.664 339.077 154.966 340.708 154.137 342.612C155.996 343.285 157.688 344.007 159.511 344.527C164.423 345.945 166.447 344.941 168.625 340.294L156.268 337.682ZM298.371 313.056L301.365 317.111C308.727 313.281 310.349 308.966 306.739 303.611C304.04 306.649 301.318 309.711 298.347 313.056H298.371ZM268.059 89.7023C269.455 88.5201 270.864 87.3379 272.119 86.1556C272.394 85.8999 272.615 85.5909 272.767 85.2475C272.92 84.9041 273.001 84.5334 273.006 84.1577C272.308 81.1076 271.397 78.093 270.497 74.8419L265.372 77.0999L268.059 89.7023ZM156.315 67.2404L169.228 64.675C168.383 63.6452 167.474 62.6699 166.506 61.7549C165.583 60.9628 164.387 59.6979 163.476 59.8397C160.333 60.4417 157.224 61.2073 154.161 62.1332L156.315 67.2404ZM243.038 64.604L255.631 67.3349L257.667 62.6061C249.713 58.5038 247.346 58.8585 243.038 64.6513V64.604ZM298.347 91.913C301.33 95.3177 304.076 98.4269 307.212 101.997C307.78 99.3136 309.378 96.4054 308.526 94.7266C307.106 91.9366 304.135 89.9978 301.697 87.4915L298.347 91.913ZM242.801 340.342C243.747 341.524 244.767 342.645 245.854 343.699C246.636 344.373 247.796 345.295 248.612 345.142C251.69 344.586 254.684 343.64 257.868 342.777C256.874 340.59 256.14 338.959 255.501 337.67L242.801 340.342ZM267.727 315.515C267.455 317.584 267.337 319.641 266.899 321.616C266.461 323.59 265.715 325.694 265.029 327.834L269.858 330.057C274.403 323.46 273.752 318.92 267.727 315.48V315.515ZM170.412 346.82V341.193L165.985 346.206L170.412 346.82ZM170.412 63.8001V58.1965L165.985 58.823L170.412 63.8001ZM344.022 241.131L348.544 244.051L350.579 239.689L344.022 241.131ZM67.8055 241.131L61.343 239.854L63.3197 244.134L67.8055 241.131ZM310.55 96.1571C309.84 98.3324 309.272 100.106 308.514 102.399L313.403 99.7983L310.55 96.1571ZM308.443 302.629L310.574 308.954L313.391 305.136L308.443 302.629ZM350.568 165.21L348.603 160.836L344.105 163.85L350.568 165.21ZM245.878 58.8112L241.57 58.1965V63.8001L245.878 58.8112ZM241.144 346.785L245.878 346.194L241.617 341.347C241.428 343.321 241.321 344.751 241.156 346.808L241.144 346.785ZM101.29 308.919L103.479 302.558L98.5199 305.183L101.29 308.919ZM101.361 96.0271L98.5081 99.8811L103.432 102.352L101.361 96.0271ZM61.4141 165.186L67.8528 163.862L63.3315 160.918L61.4141 165.186ZM206.819 41.1845L205.174 41.0781C205.089 42.2307 205.07 43.3872 205.115 44.542C205.675 44.6694 206.246 44.7407 206.819 44.7548V41.1845ZM343.715 279.896C343.221 280.504 342.774 281.148 342.377 281.823C343.098 282.506 343.892 283.108 344.744 283.62C344.804 283.62 345.703 282.697 345.608 282.508C345.045 281.59 344.412 280.717 343.715 279.896ZM346.082 122.059L344.898 120.877L342.33 123.241C342.803 123.632 343.608 124.424 343.726 124.341C344.568 123.632 345.363 122.87 346.105 122.059H346.082ZM205.233 363.927L206.973 363.797L206.76 360.25C206.183 360.281 205.612 360.376 205.056 360.534C205.039 361.667 205.086 362.799 205.198 363.927H205.233ZM65.6869 282.083L66.1603 283.679C67.1931 283.41 68.2025 283.058 69.1785 282.626C69.3797 282.52 69.0838 281.444 69.0246 280.853L65.6869 282.083ZM66.184 121.385L65.6632 122.733L68.8707 124.258C68.9773 123.596 69.3442 122.438 69.1548 122.343C68.1972 121.93 67.2024 121.61 66.184 121.385V121.385Z" fill="white"/>
</svg>
